M48
; DRILL file {KiCad 5.1.9-73d0e3b20d~88~ubuntu20.04.1} date Tue Mar  2 22:50:13 2021
; FORMAT={2:4/ absolute / inch / suppress leading zeros}
; #@! TF.CreationDate,2021-03-02T22:50:13+01:00
; #@! TF.GenerationSoftware,Kicad,Pcbnew,5.1.9-73d0e3b20d~88~ubuntu20.04.1
; #@! TF.FileFunction,NonPlated,1,2,NPTH
FMAT,2
INCH,TZ
T1C0.0610
T2C0.1260
%
G90
G05
T1
X33965Y-23515
X33965Y-27295
T2
X21654Y-31496
X21654Y-38386
X44291Y-38386
X48228Y-21700
T0
M30
