G04 #@! TF.GenerationSoftware,KiCad,Pcbnew,5.1.9-73d0e3b20d~88~ubuntu20.04.1*
G04 #@! TF.CreationDate,2021-03-02T22:50:08+01:00*
G04 #@! TF.ProjectId,SFPexperiments,53465065-7870-4657-9269-6d656e74732e,rev?*
G04 #@! TF.SameCoordinates,Original*
G04 #@! TF.FileFunction,Paste,Top*
G04 #@! TF.FilePolarity,Positive*
%FSLAX46Y46*%
G04 Gerber Fmt 4.6, Leading zero omitted, Abs format (unit mm)*
G04 Created by KiCad (PCBNEW 5.1.9-73d0e3b20d~88~ubuntu20.04.1) date 2021-03-02 22:50:08*
%MOMM*%
%LPD*%
G01*
G04 APERTURE LIST*
%ADD10R,1.350000X0.400000*%
%ADD11R,1.900000X2.900000*%
%ADD12R,0.850000X0.300000*%
%ADD13R,2.000000X0.500000*%
%ADD14R,0.650000X1.060000*%
G04 APERTURE END LIST*
G04 #@! TO.C,C1*
G36*
G01*
X123460600Y-77195200D02*
X122360600Y-77195200D01*
G75*
G02*
X122110600Y-76945200I0J250000D01*
G01*
X122110600Y-74845200D01*
G75*
G02*
X122360600Y-74595200I250000J0D01*
G01*
X123460600Y-74595200D01*
G75*
G02*
X123710600Y-74845200I0J-250000D01*
G01*
X123710600Y-76945200D01*
G75*
G02*
X123460600Y-77195200I-250000J0D01*
G01*
G37*
G36*
G01*
X123460600Y-80795200D02*
X122360600Y-80795200D01*
G75*
G02*
X122110600Y-80545200I0J250000D01*
G01*
X122110600Y-78445200D01*
G75*
G02*
X122360600Y-78195200I250000J0D01*
G01*
X123460600Y-78195200D01*
G75*
G02*
X123710600Y-78445200I0J-250000D01*
G01*
X123710600Y-80545200D01*
G75*
G02*
X123460600Y-80795200I-250000J0D01*
G01*
G37*
G04 #@! TD*
G04 #@! TO.C,C2*
G36*
G01*
X119414300Y-77425500D02*
X118939300Y-77425500D01*
G75*
G02*
X118701800Y-77188000I0J237500D01*
G01*
X118701800Y-76588000D01*
G75*
G02*
X118939300Y-76350500I237500J0D01*
G01*
X119414300Y-76350500D01*
G75*
G02*
X119651800Y-76588000I0J-237500D01*
G01*
X119651800Y-77188000D01*
G75*
G02*
X119414300Y-77425500I-237500J0D01*
G01*
G37*
G36*
G01*
X119414300Y-79150500D02*
X118939300Y-79150500D01*
G75*
G02*
X118701800Y-78913000I0J237500D01*
G01*
X118701800Y-78313000D01*
G75*
G02*
X118939300Y-78075500I237500J0D01*
G01*
X119414300Y-78075500D01*
G75*
G02*
X119651800Y-78313000I0J-237500D01*
G01*
X119651800Y-78913000D01*
G75*
G02*
X119414300Y-79150500I-237500J0D01*
G01*
G37*
G04 #@! TD*
G04 #@! TO.C,C3*
G36*
G01*
X110244800Y-74116000D02*
X111344800Y-74116000D01*
G75*
G02*
X111594800Y-74366000I0J-250000D01*
G01*
X111594800Y-76466000D01*
G75*
G02*
X111344800Y-76716000I-250000J0D01*
G01*
X110244800Y-76716000D01*
G75*
G02*
X109994800Y-76466000I0J250000D01*
G01*
X109994800Y-74366000D01*
G75*
G02*
X110244800Y-74116000I250000J0D01*
G01*
G37*
G36*
G01*
X110244800Y-77716000D02*
X111344800Y-77716000D01*
G75*
G02*
X111594800Y-77966000I0J-250000D01*
G01*
X111594800Y-80066000D01*
G75*
G02*
X111344800Y-80316000I-250000J0D01*
G01*
X110244800Y-80316000D01*
G75*
G02*
X109994800Y-80066000I0J250000D01*
G01*
X109994800Y-77966000D01*
G75*
G02*
X110244800Y-77716000I250000J0D01*
G01*
G37*
G04 #@! TD*
G04 #@! TO.C,C4*
G36*
G01*
X106264700Y-76653100D02*
X106739700Y-76653100D01*
G75*
G02*
X106977200Y-76890600I0J-237500D01*
G01*
X106977200Y-77490600D01*
G75*
G02*
X106739700Y-77728100I-237500J0D01*
G01*
X106264700Y-77728100D01*
G75*
G02*
X106027200Y-77490600I0J237500D01*
G01*
X106027200Y-76890600D01*
G75*
G02*
X106264700Y-76653100I237500J0D01*
G01*
G37*
G36*
G01*
X106264700Y-78378100D02*
X106739700Y-78378100D01*
G75*
G02*
X106977200Y-78615600I0J-237500D01*
G01*
X106977200Y-79215600D01*
G75*
G02*
X106739700Y-79453100I-237500J0D01*
G01*
X106264700Y-79453100D01*
G75*
G02*
X106027200Y-79215600I0J237500D01*
G01*
X106027200Y-78615600D01*
G75*
G02*
X106264700Y-78378100I237500J0D01*
G01*
G37*
G04 #@! TD*
G04 #@! TO.C,C7*
G36*
G01*
X88929200Y-80577400D02*
X89404200Y-80577400D01*
G75*
G02*
X89641700Y-80814900I0J-237500D01*
G01*
X89641700Y-81414900D01*
G75*
G02*
X89404200Y-81652400I-237500J0D01*
G01*
X88929200Y-81652400D01*
G75*
G02*
X88691700Y-81414900I0J237500D01*
G01*
X88691700Y-80814900D01*
G75*
G02*
X88929200Y-80577400I237500J0D01*
G01*
G37*
G36*
G01*
X88929200Y-78852400D02*
X89404200Y-78852400D01*
G75*
G02*
X89641700Y-79089900I0J-237500D01*
G01*
X89641700Y-79689900D01*
G75*
G02*
X89404200Y-79927400I-237500J0D01*
G01*
X88929200Y-79927400D01*
G75*
G02*
X88691700Y-79689900I0J237500D01*
G01*
X88691700Y-79089900D01*
G75*
G02*
X88929200Y-78852400I237500J0D01*
G01*
G37*
G04 #@! TD*
G04 #@! TO.C,C8*
G36*
G01*
X97870000Y-78825900D02*
X98345000Y-78825900D01*
G75*
G02*
X98582500Y-79063400I0J-237500D01*
G01*
X98582500Y-79663400D01*
G75*
G02*
X98345000Y-79900900I-237500J0D01*
G01*
X97870000Y-79900900D01*
G75*
G02*
X97632500Y-79663400I0J237500D01*
G01*
X97632500Y-79063400D01*
G75*
G02*
X97870000Y-78825900I237500J0D01*
G01*
G37*
G36*
G01*
X97870000Y-80550900D02*
X98345000Y-80550900D01*
G75*
G02*
X98582500Y-80788400I0J-237500D01*
G01*
X98582500Y-81388400D01*
G75*
G02*
X98345000Y-81625900I-237500J0D01*
G01*
X97870000Y-81625900D01*
G75*
G02*
X97632500Y-81388400I0J237500D01*
G01*
X97632500Y-80788400D01*
G75*
G02*
X97870000Y-80550900I237500J0D01*
G01*
G37*
G04 #@! TD*
G04 #@! TO.C,C9*
G36*
G01*
X92375900Y-76214900D02*
X93475900Y-76214900D01*
G75*
G02*
X93725900Y-76464900I0J-250000D01*
G01*
X93725900Y-78564900D01*
G75*
G02*
X93475900Y-78814900I-250000J0D01*
G01*
X92375900Y-78814900D01*
G75*
G02*
X92125900Y-78564900I0J250000D01*
G01*
X92125900Y-76464900D01*
G75*
G02*
X92375900Y-76214900I250000J0D01*
G01*
G37*
G36*
G01*
X92375900Y-79814900D02*
X93475900Y-79814900D01*
G75*
G02*
X93725900Y-80064900I0J-250000D01*
G01*
X93725900Y-82164900D01*
G75*
G02*
X93475900Y-82414900I-250000J0D01*
G01*
X92375900Y-82414900D01*
G75*
G02*
X92125900Y-82164900I0J250000D01*
G01*
X92125900Y-80064900D01*
G75*
G02*
X92375900Y-79814900I250000J0D01*
G01*
G37*
G04 #@! TD*
G04 #@! TO.C,C10*
G36*
G01*
X101469100Y-76389300D02*
X102569100Y-76389300D01*
G75*
G02*
X102819100Y-76639300I0J-250000D01*
G01*
X102819100Y-78739300D01*
G75*
G02*
X102569100Y-78989300I-250000J0D01*
G01*
X101469100Y-78989300D01*
G75*
G02*
X101219100Y-78739300I0J250000D01*
G01*
X101219100Y-76639300D01*
G75*
G02*
X101469100Y-76389300I250000J0D01*
G01*
G37*
G36*
G01*
X101469100Y-79989300D02*
X102569100Y-79989300D01*
G75*
G02*
X102819100Y-80239300I0J-250000D01*
G01*
X102819100Y-82339300D01*
G75*
G02*
X102569100Y-82589300I-250000J0D01*
G01*
X101469100Y-82589300D01*
G75*
G02*
X101219100Y-82339300I0J250000D01*
G01*
X101219100Y-80239300D01*
G75*
G02*
X101469100Y-79989300I250000J0D01*
G01*
G37*
G04 #@! TD*
G04 #@! TO.C,D4*
G36*
G01*
X123794000Y-71865500D02*
X123794000Y-71390500D01*
G75*
G02*
X124031500Y-71153000I237500J0D01*
G01*
X124606500Y-71153000D01*
G75*
G02*
X124844000Y-71390500I0J-237500D01*
G01*
X124844000Y-71865500D01*
G75*
G02*
X124606500Y-72103000I-237500J0D01*
G01*
X124031500Y-72103000D01*
G75*
G02*
X123794000Y-71865500I0J237500D01*
G01*
G37*
G36*
G01*
X122044000Y-71865500D02*
X122044000Y-71390500D01*
G75*
G02*
X122281500Y-71153000I237500J0D01*
G01*
X122856500Y-71153000D01*
G75*
G02*
X123094000Y-71390500I0J-237500D01*
G01*
X123094000Y-71865500D01*
G75*
G02*
X122856500Y-72103000I-237500J0D01*
G01*
X122281500Y-72103000D01*
G75*
G02*
X122044000Y-71865500I0J237500D01*
G01*
G37*
G04 #@! TD*
G04 #@! TO.C,D1*
G36*
G01*
X89137500Y-99331000D02*
X88662500Y-99331000D01*
G75*
G02*
X88425000Y-99093500I0J237500D01*
G01*
X88425000Y-98518500D01*
G75*
G02*
X88662500Y-98281000I237500J0D01*
G01*
X89137500Y-98281000D01*
G75*
G02*
X89375000Y-98518500I0J-237500D01*
G01*
X89375000Y-99093500D01*
G75*
G02*
X89137500Y-99331000I-237500J0D01*
G01*
G37*
G36*
G01*
X89137500Y-97581000D02*
X88662500Y-97581000D01*
G75*
G02*
X88425000Y-97343500I0J237500D01*
G01*
X88425000Y-96768500D01*
G75*
G02*
X88662500Y-96531000I237500J0D01*
G01*
X89137500Y-96531000D01*
G75*
G02*
X89375000Y-96768500I0J-237500D01*
G01*
X89375000Y-97343500D01*
G75*
G02*
X89137500Y-97581000I-237500J0D01*
G01*
G37*
G04 #@! TD*
G04 #@! TO.C,D2*
G36*
G01*
X91931500Y-97581000D02*
X91456500Y-97581000D01*
G75*
G02*
X91219000Y-97343500I0J237500D01*
G01*
X91219000Y-96768500D01*
G75*
G02*
X91456500Y-96531000I237500J0D01*
G01*
X91931500Y-96531000D01*
G75*
G02*
X92169000Y-96768500I0J-237500D01*
G01*
X92169000Y-97343500D01*
G75*
G02*
X91931500Y-97581000I-237500J0D01*
G01*
G37*
G36*
G01*
X91931500Y-99331000D02*
X91456500Y-99331000D01*
G75*
G02*
X91219000Y-99093500I0J237500D01*
G01*
X91219000Y-98518500D01*
G75*
G02*
X91456500Y-98281000I237500J0D01*
G01*
X91931500Y-98281000D01*
G75*
G02*
X92169000Y-98518500I0J-237500D01*
G01*
X92169000Y-99093500D01*
G75*
G02*
X91931500Y-99331000I-237500J0D01*
G01*
G37*
G04 #@! TD*
G04 #@! TO.C,D3*
G36*
G01*
X94725500Y-99303000D02*
X94250500Y-99303000D01*
G75*
G02*
X94013000Y-99065500I0J237500D01*
G01*
X94013000Y-98490500D01*
G75*
G02*
X94250500Y-98253000I237500J0D01*
G01*
X94725500Y-98253000D01*
G75*
G02*
X94963000Y-98490500I0J-237500D01*
G01*
X94963000Y-99065500D01*
G75*
G02*
X94725500Y-99303000I-237500J0D01*
G01*
G37*
G36*
G01*
X94725500Y-97553000D02*
X94250500Y-97553000D01*
G75*
G02*
X94013000Y-97315500I0J237500D01*
G01*
X94013000Y-96740500D01*
G75*
G02*
X94250500Y-96503000I237500J0D01*
G01*
X94725500Y-96503000D01*
G75*
G02*
X94963000Y-96740500I0J-237500D01*
G01*
X94963000Y-97315500D01*
G75*
G02*
X94725500Y-97553000I-237500J0D01*
G01*
G37*
G04 #@! TD*
D10*
G04 #@! TO.C,J2*
X122877200Y-88980800D03*
X122877200Y-88330800D03*
X122877200Y-87680800D03*
X122877200Y-86380800D03*
X122877200Y-87030800D03*
D11*
X125552200Y-87680800D03*
D12*
X125552200Y-84180800D03*
X125552200Y-91180800D03*
G04 #@! TD*
D13*
G04 #@! TO.C,J5*
X82172000Y-61129000D03*
X82172000Y-61929000D03*
X82172000Y-62729000D03*
X82172000Y-63529000D03*
X82172000Y-64329000D03*
X82172000Y-65129000D03*
X82172000Y-65929000D03*
X82172000Y-66729000D03*
X82172000Y-67529000D03*
X82172000Y-68329000D03*
X90372000Y-67929000D03*
X90372000Y-67129000D03*
X90372000Y-66329000D03*
X90372000Y-65529000D03*
X90372000Y-64729000D03*
X90372000Y-63929000D03*
X90372000Y-63129000D03*
X90372000Y-62329000D03*
X90372000Y-61529000D03*
X90372000Y-60729000D03*
G04 #@! TD*
G04 #@! TO.C,L1*
G36*
G01*
X89693000Y-74743300D02*
X89693000Y-75218300D01*
G75*
G02*
X89455500Y-75455800I-237500J0D01*
G01*
X88880500Y-75455800D01*
G75*
G02*
X88643000Y-75218300I0J237500D01*
G01*
X88643000Y-74743300D01*
G75*
G02*
X88880500Y-74505800I237500J0D01*
G01*
X89455500Y-74505800D01*
G75*
G02*
X89693000Y-74743300I0J-237500D01*
G01*
G37*
G36*
G01*
X91443000Y-74743300D02*
X91443000Y-75218300D01*
G75*
G02*
X91205500Y-75455800I-237500J0D01*
G01*
X90630500Y-75455800D01*
G75*
G02*
X90393000Y-75218300I0J237500D01*
G01*
X90393000Y-74743300D01*
G75*
G02*
X90630500Y-74505800I237500J0D01*
G01*
X91205500Y-74505800D01*
G75*
G02*
X91443000Y-74743300I0J-237500D01*
G01*
G37*
G04 #@! TD*
G04 #@! TO.C,L2*
G36*
G01*
X104243300Y-73816200D02*
X104243300Y-74291200D01*
G75*
G02*
X104005800Y-74528700I-237500J0D01*
G01*
X103430800Y-74528700D01*
G75*
G02*
X103193300Y-74291200I0J237500D01*
G01*
X103193300Y-73816200D01*
G75*
G02*
X103430800Y-73578700I237500J0D01*
G01*
X104005800Y-73578700D01*
G75*
G02*
X104243300Y-73816200I0J-237500D01*
G01*
G37*
G36*
G01*
X102493300Y-73816200D02*
X102493300Y-74291200D01*
G75*
G02*
X102255800Y-74528700I-237500J0D01*
G01*
X101680800Y-74528700D01*
G75*
G02*
X101443300Y-74291200I0J237500D01*
G01*
X101443300Y-73816200D01*
G75*
G02*
X101680800Y-73578700I237500J0D01*
G01*
X102255800Y-73578700D01*
G75*
G02*
X102493300Y-73816200I0J-237500D01*
G01*
G37*
G04 #@! TD*
G04 #@! TO.C,R1*
G36*
G01*
X119091700Y-91638300D02*
X119566700Y-91638300D01*
G75*
G02*
X119804200Y-91875800I0J-237500D01*
G01*
X119804200Y-92375800D01*
G75*
G02*
X119566700Y-92613300I-237500J0D01*
G01*
X119091700Y-92613300D01*
G75*
G02*
X118854200Y-92375800I0J237500D01*
G01*
X118854200Y-91875800D01*
G75*
G02*
X119091700Y-91638300I237500J0D01*
G01*
G37*
G36*
G01*
X119091700Y-89813300D02*
X119566700Y-89813300D01*
G75*
G02*
X119804200Y-90050800I0J-237500D01*
G01*
X119804200Y-90550800D01*
G75*
G02*
X119566700Y-90788300I-237500J0D01*
G01*
X119091700Y-90788300D01*
G75*
G02*
X118854200Y-90550800I0J237500D01*
G01*
X118854200Y-90050800D01*
G75*
G02*
X119091700Y-89813300I237500J0D01*
G01*
G37*
G04 #@! TD*
G04 #@! TO.C,R2*
G36*
G01*
X122147500Y-68563500D02*
X122147500Y-68088500D01*
G75*
G02*
X122385000Y-67851000I237500J0D01*
G01*
X122885000Y-67851000D01*
G75*
G02*
X123122500Y-68088500I0J-237500D01*
G01*
X123122500Y-68563500D01*
G75*
G02*
X122885000Y-68801000I-237500J0D01*
G01*
X122385000Y-68801000D01*
G75*
G02*
X122147500Y-68563500I0J237500D01*
G01*
G37*
G36*
G01*
X123972500Y-68563500D02*
X123972500Y-68088500D01*
G75*
G02*
X124210000Y-67851000I237500J0D01*
G01*
X124710000Y-67851000D01*
G75*
G02*
X124947500Y-68088500I0J-237500D01*
G01*
X124947500Y-68563500D01*
G75*
G02*
X124710000Y-68801000I-237500J0D01*
G01*
X124210000Y-68801000D01*
G75*
G02*
X123972500Y-68563500I0J237500D01*
G01*
G37*
G04 #@! TD*
G04 #@! TO.C,R3*
G36*
G01*
X85364500Y-97265500D02*
X85364500Y-96790500D01*
G75*
G02*
X85602000Y-96553000I237500J0D01*
G01*
X86102000Y-96553000D01*
G75*
G02*
X86339500Y-96790500I0J-237500D01*
G01*
X86339500Y-97265500D01*
G75*
G02*
X86102000Y-97503000I-237500J0D01*
G01*
X85602000Y-97503000D01*
G75*
G02*
X85364500Y-97265500I0J237500D01*
G01*
G37*
G36*
G01*
X83539500Y-97265500D02*
X83539500Y-96790500D01*
G75*
G02*
X83777000Y-96553000I237500J0D01*
G01*
X84277000Y-96553000D01*
G75*
G02*
X84514500Y-96790500I0J-237500D01*
G01*
X84514500Y-97265500D01*
G75*
G02*
X84277000Y-97503000I-237500J0D01*
G01*
X83777000Y-97503000D01*
G75*
G02*
X83539500Y-97265500I0J237500D01*
G01*
G37*
G04 #@! TD*
G04 #@! TO.C,R4*
G36*
G01*
X89381500Y-94471500D02*
X89381500Y-93996500D01*
G75*
G02*
X89619000Y-93759000I237500J0D01*
G01*
X90119000Y-93759000D01*
G75*
G02*
X90356500Y-93996500I0J-237500D01*
G01*
X90356500Y-94471500D01*
G75*
G02*
X90119000Y-94709000I-237500J0D01*
G01*
X89619000Y-94709000D01*
G75*
G02*
X89381500Y-94471500I0J237500D01*
G01*
G37*
G36*
G01*
X91206500Y-94471500D02*
X91206500Y-93996500D01*
G75*
G02*
X91444000Y-93759000I237500J0D01*
G01*
X91944000Y-93759000D01*
G75*
G02*
X92181500Y-93996500I0J-237500D01*
G01*
X92181500Y-94471500D01*
G75*
G02*
X91944000Y-94709000I-237500J0D01*
G01*
X91444000Y-94709000D01*
G75*
G02*
X91206500Y-94471500I0J237500D01*
G01*
G37*
G04 #@! TD*
G04 #@! TO.C,R5*
G36*
G01*
X94250500Y-91921500D02*
X94725500Y-91921500D01*
G75*
G02*
X94963000Y-92159000I0J-237500D01*
G01*
X94963000Y-92659000D01*
G75*
G02*
X94725500Y-92896500I-237500J0D01*
G01*
X94250500Y-92896500D01*
G75*
G02*
X94013000Y-92659000I0J237500D01*
G01*
X94013000Y-92159000D01*
G75*
G02*
X94250500Y-91921500I237500J0D01*
G01*
G37*
G36*
G01*
X94250500Y-93746500D02*
X94725500Y-93746500D01*
G75*
G02*
X94963000Y-93984000I0J-237500D01*
G01*
X94963000Y-94484000D01*
G75*
G02*
X94725500Y-94721500I-237500J0D01*
G01*
X94250500Y-94721500D01*
G75*
G02*
X94013000Y-94484000I0J237500D01*
G01*
X94013000Y-93984000D01*
G75*
G02*
X94250500Y-93746500I237500J0D01*
G01*
G37*
G04 #@! TD*
G04 #@! TO.C,R6*
G36*
G01*
X80284500Y-75929500D02*
X80284500Y-75454500D01*
G75*
G02*
X80522000Y-75217000I237500J0D01*
G01*
X81022000Y-75217000D01*
G75*
G02*
X81259500Y-75454500I0J-237500D01*
G01*
X81259500Y-75929500D01*
G75*
G02*
X81022000Y-76167000I-237500J0D01*
G01*
X80522000Y-76167000D01*
G75*
G02*
X80284500Y-75929500I0J237500D01*
G01*
G37*
G36*
G01*
X78459500Y-75929500D02*
X78459500Y-75454500D01*
G75*
G02*
X78697000Y-75217000I237500J0D01*
G01*
X79197000Y-75217000D01*
G75*
G02*
X79434500Y-75454500I0J-237500D01*
G01*
X79434500Y-75929500D01*
G75*
G02*
X79197000Y-76167000I-237500J0D01*
G01*
X78697000Y-76167000D01*
G75*
G02*
X78459500Y-75929500I0J237500D01*
G01*
G37*
G04 #@! TD*
G04 #@! TO.C,R7*
G36*
G01*
X64489500Y-75929500D02*
X64489500Y-75454500D01*
G75*
G02*
X64727000Y-75217000I237500J0D01*
G01*
X65227000Y-75217000D01*
G75*
G02*
X65464500Y-75454500I0J-237500D01*
G01*
X65464500Y-75929500D01*
G75*
G02*
X65227000Y-76167000I-237500J0D01*
G01*
X64727000Y-76167000D01*
G75*
G02*
X64489500Y-75929500I0J237500D01*
G01*
G37*
G36*
G01*
X66314500Y-75929500D02*
X66314500Y-75454500D01*
G75*
G02*
X66552000Y-75217000I237500J0D01*
G01*
X67052000Y-75217000D01*
G75*
G02*
X67289500Y-75454500I0J-237500D01*
G01*
X67289500Y-75929500D01*
G75*
G02*
X67052000Y-76167000I-237500J0D01*
G01*
X66552000Y-76167000D01*
G75*
G02*
X66314500Y-75929500I0J237500D01*
G01*
G37*
G04 #@! TD*
G04 #@! TO.C,R8*
G36*
G01*
X66314500Y-82533500D02*
X66314500Y-82058500D01*
G75*
G02*
X66552000Y-81821000I237500J0D01*
G01*
X67052000Y-81821000D01*
G75*
G02*
X67289500Y-82058500I0J-237500D01*
G01*
X67289500Y-82533500D01*
G75*
G02*
X67052000Y-82771000I-237500J0D01*
G01*
X66552000Y-82771000D01*
G75*
G02*
X66314500Y-82533500I0J237500D01*
G01*
G37*
G36*
G01*
X64489500Y-82533500D02*
X64489500Y-82058500D01*
G75*
G02*
X64727000Y-81821000I237500J0D01*
G01*
X65227000Y-81821000D01*
G75*
G02*
X65464500Y-82058500I0J-237500D01*
G01*
X65464500Y-82533500D01*
G75*
G02*
X65227000Y-82771000I-237500J0D01*
G01*
X64727000Y-82771000D01*
G75*
G02*
X64489500Y-82533500I0J237500D01*
G01*
G37*
G04 #@! TD*
G04 #@! TO.C,R9*
G36*
G01*
X64489500Y-79231500D02*
X64489500Y-78756500D01*
G75*
G02*
X64727000Y-78519000I237500J0D01*
G01*
X65227000Y-78519000D01*
G75*
G02*
X65464500Y-78756500I0J-237500D01*
G01*
X65464500Y-79231500D01*
G75*
G02*
X65227000Y-79469000I-237500J0D01*
G01*
X64727000Y-79469000D01*
G75*
G02*
X64489500Y-79231500I0J237500D01*
G01*
G37*
G36*
G01*
X66314500Y-79231500D02*
X66314500Y-78756500D01*
G75*
G02*
X66552000Y-78519000I237500J0D01*
G01*
X67052000Y-78519000D01*
G75*
G02*
X67289500Y-78756500I0J-237500D01*
G01*
X67289500Y-79231500D01*
G75*
G02*
X67052000Y-79469000I-237500J0D01*
G01*
X66552000Y-79469000D01*
G75*
G02*
X66314500Y-79231500I0J237500D01*
G01*
G37*
G04 #@! TD*
G04 #@! TO.C,R10*
G36*
G01*
X64489500Y-85835500D02*
X64489500Y-85360500D01*
G75*
G02*
X64727000Y-85123000I237500J0D01*
G01*
X65227000Y-85123000D01*
G75*
G02*
X65464500Y-85360500I0J-237500D01*
G01*
X65464500Y-85835500D01*
G75*
G02*
X65227000Y-86073000I-237500J0D01*
G01*
X64727000Y-86073000D01*
G75*
G02*
X64489500Y-85835500I0J237500D01*
G01*
G37*
G36*
G01*
X66314500Y-85835500D02*
X66314500Y-85360500D01*
G75*
G02*
X66552000Y-85123000I237500J0D01*
G01*
X67052000Y-85123000D01*
G75*
G02*
X67289500Y-85360500I0J-237500D01*
G01*
X67289500Y-85835500D01*
G75*
G02*
X67052000Y-86073000I-237500J0D01*
G01*
X66552000Y-86073000D01*
G75*
G02*
X66314500Y-85835500I0J237500D01*
G01*
G37*
G04 #@! TD*
G04 #@! TO.C,R11*
G36*
G01*
X66314500Y-89137500D02*
X66314500Y-88662500D01*
G75*
G02*
X66552000Y-88425000I237500J0D01*
G01*
X67052000Y-88425000D01*
G75*
G02*
X67289500Y-88662500I0J-237500D01*
G01*
X67289500Y-89137500D01*
G75*
G02*
X67052000Y-89375000I-237500J0D01*
G01*
X66552000Y-89375000D01*
G75*
G02*
X66314500Y-89137500I0J237500D01*
G01*
G37*
G36*
G01*
X64489500Y-89137500D02*
X64489500Y-88662500D01*
G75*
G02*
X64727000Y-88425000I237500J0D01*
G01*
X65227000Y-88425000D01*
G75*
G02*
X65464500Y-88662500I0J-237500D01*
G01*
X65464500Y-89137500D01*
G75*
G02*
X65227000Y-89375000I-237500J0D01*
G01*
X64727000Y-89375000D01*
G75*
G02*
X64489500Y-89137500I0J237500D01*
G01*
G37*
G04 #@! TD*
G04 #@! TO.C,R12*
G36*
G01*
X78459500Y-82533500D02*
X78459500Y-82058500D01*
G75*
G02*
X78697000Y-81821000I237500J0D01*
G01*
X79197000Y-81821000D01*
G75*
G02*
X79434500Y-82058500I0J-237500D01*
G01*
X79434500Y-82533500D01*
G75*
G02*
X79197000Y-82771000I-237500J0D01*
G01*
X78697000Y-82771000D01*
G75*
G02*
X78459500Y-82533500I0J237500D01*
G01*
G37*
G36*
G01*
X80284500Y-82533500D02*
X80284500Y-82058500D01*
G75*
G02*
X80522000Y-81821000I237500J0D01*
G01*
X81022000Y-81821000D01*
G75*
G02*
X81259500Y-82058500I0J-237500D01*
G01*
X81259500Y-82533500D01*
G75*
G02*
X81022000Y-82771000I-237500J0D01*
G01*
X80522000Y-82771000D01*
G75*
G02*
X80284500Y-82533500I0J237500D01*
G01*
G37*
G04 #@! TD*
G04 #@! TO.C,R13*
G36*
G01*
X80284500Y-79231500D02*
X80284500Y-78756500D01*
G75*
G02*
X80522000Y-78519000I237500J0D01*
G01*
X81022000Y-78519000D01*
G75*
G02*
X81259500Y-78756500I0J-237500D01*
G01*
X81259500Y-79231500D01*
G75*
G02*
X81022000Y-79469000I-237500J0D01*
G01*
X80522000Y-79469000D01*
G75*
G02*
X80284500Y-79231500I0J237500D01*
G01*
G37*
G36*
G01*
X78459500Y-79231500D02*
X78459500Y-78756500D01*
G75*
G02*
X78697000Y-78519000I237500J0D01*
G01*
X79197000Y-78519000D01*
G75*
G02*
X79434500Y-78756500I0J-237500D01*
G01*
X79434500Y-79231500D01*
G75*
G02*
X79197000Y-79469000I-237500J0D01*
G01*
X78697000Y-79469000D01*
G75*
G02*
X78459500Y-79231500I0J237500D01*
G01*
G37*
G04 #@! TD*
G04 #@! TO.C,U1*
G36*
G01*
X86467200Y-86265200D02*
X86667200Y-86265200D01*
G75*
G02*
X86767200Y-86365200I0J-100000D01*
G01*
X86767200Y-87640200D01*
G75*
G02*
X86667200Y-87740200I-100000J0D01*
G01*
X86467200Y-87740200D01*
G75*
G02*
X86367200Y-87640200I0J100000D01*
G01*
X86367200Y-86365200D01*
G75*
G02*
X86467200Y-86265200I100000J0D01*
G01*
G37*
G36*
G01*
X85817200Y-86265200D02*
X86017200Y-86265200D01*
G75*
G02*
X86117200Y-86365200I0J-100000D01*
G01*
X86117200Y-87640200D01*
G75*
G02*
X86017200Y-87740200I-100000J0D01*
G01*
X85817200Y-87740200D01*
G75*
G02*
X85717200Y-87640200I0J100000D01*
G01*
X85717200Y-86365200D01*
G75*
G02*
X85817200Y-86265200I100000J0D01*
G01*
G37*
G36*
G01*
X85167200Y-86265200D02*
X85367200Y-86265200D01*
G75*
G02*
X85467200Y-86365200I0J-100000D01*
G01*
X85467200Y-87640200D01*
G75*
G02*
X85367200Y-87740200I-100000J0D01*
G01*
X85167200Y-87740200D01*
G75*
G02*
X85067200Y-87640200I0J100000D01*
G01*
X85067200Y-86365200D01*
G75*
G02*
X85167200Y-86265200I100000J0D01*
G01*
G37*
G36*
G01*
X84517200Y-86265200D02*
X84717200Y-86265200D01*
G75*
G02*
X84817200Y-86365200I0J-100000D01*
G01*
X84817200Y-87640200D01*
G75*
G02*
X84717200Y-87740200I-100000J0D01*
G01*
X84517200Y-87740200D01*
G75*
G02*
X84417200Y-87640200I0J100000D01*
G01*
X84417200Y-86365200D01*
G75*
G02*
X84517200Y-86265200I100000J0D01*
G01*
G37*
G36*
G01*
X83867200Y-86265200D02*
X84067200Y-86265200D01*
G75*
G02*
X84167200Y-86365200I0J-100000D01*
G01*
X84167200Y-87640200D01*
G75*
G02*
X84067200Y-87740200I-100000J0D01*
G01*
X83867200Y-87740200D01*
G75*
G02*
X83767200Y-87640200I0J100000D01*
G01*
X83767200Y-86365200D01*
G75*
G02*
X83867200Y-86265200I100000J0D01*
G01*
G37*
G36*
G01*
X83217200Y-86265200D02*
X83417200Y-86265200D01*
G75*
G02*
X83517200Y-86365200I0J-100000D01*
G01*
X83517200Y-87640200D01*
G75*
G02*
X83417200Y-87740200I-100000J0D01*
G01*
X83217200Y-87740200D01*
G75*
G02*
X83117200Y-87640200I0J100000D01*
G01*
X83117200Y-86365200D01*
G75*
G02*
X83217200Y-86265200I100000J0D01*
G01*
G37*
G36*
G01*
X82567200Y-86265200D02*
X82767200Y-86265200D01*
G75*
G02*
X82867200Y-86365200I0J-100000D01*
G01*
X82867200Y-87640200D01*
G75*
G02*
X82767200Y-87740200I-100000J0D01*
G01*
X82567200Y-87740200D01*
G75*
G02*
X82467200Y-87640200I0J100000D01*
G01*
X82467200Y-86365200D01*
G75*
G02*
X82567200Y-86265200I100000J0D01*
G01*
G37*
G36*
G01*
X81917200Y-86265200D02*
X82117200Y-86265200D01*
G75*
G02*
X82217200Y-86365200I0J-100000D01*
G01*
X82217200Y-87640200D01*
G75*
G02*
X82117200Y-87740200I-100000J0D01*
G01*
X81917200Y-87740200D01*
G75*
G02*
X81817200Y-87640200I0J100000D01*
G01*
X81817200Y-86365200D01*
G75*
G02*
X81917200Y-86265200I100000J0D01*
G01*
G37*
G36*
G01*
X81267200Y-86265200D02*
X81467200Y-86265200D01*
G75*
G02*
X81567200Y-86365200I0J-100000D01*
G01*
X81567200Y-87640200D01*
G75*
G02*
X81467200Y-87740200I-100000J0D01*
G01*
X81267200Y-87740200D01*
G75*
G02*
X81167200Y-87640200I0J100000D01*
G01*
X81167200Y-86365200D01*
G75*
G02*
X81267200Y-86265200I100000J0D01*
G01*
G37*
G36*
G01*
X80617200Y-86265200D02*
X80817200Y-86265200D01*
G75*
G02*
X80917200Y-86365200I0J-100000D01*
G01*
X80917200Y-87640200D01*
G75*
G02*
X80817200Y-87740200I-100000J0D01*
G01*
X80617200Y-87740200D01*
G75*
G02*
X80517200Y-87640200I0J100000D01*
G01*
X80517200Y-86365200D01*
G75*
G02*
X80617200Y-86265200I100000J0D01*
G01*
G37*
G36*
G01*
X80617200Y-91990200D02*
X80817200Y-91990200D01*
G75*
G02*
X80917200Y-92090200I0J-100000D01*
G01*
X80917200Y-93365200D01*
G75*
G02*
X80817200Y-93465200I-100000J0D01*
G01*
X80617200Y-93465200D01*
G75*
G02*
X80517200Y-93365200I0J100000D01*
G01*
X80517200Y-92090200D01*
G75*
G02*
X80617200Y-91990200I100000J0D01*
G01*
G37*
G36*
G01*
X81267200Y-91990200D02*
X81467200Y-91990200D01*
G75*
G02*
X81567200Y-92090200I0J-100000D01*
G01*
X81567200Y-93365200D01*
G75*
G02*
X81467200Y-93465200I-100000J0D01*
G01*
X81267200Y-93465200D01*
G75*
G02*
X81167200Y-93365200I0J100000D01*
G01*
X81167200Y-92090200D01*
G75*
G02*
X81267200Y-91990200I100000J0D01*
G01*
G37*
G36*
G01*
X81917200Y-91990200D02*
X82117200Y-91990200D01*
G75*
G02*
X82217200Y-92090200I0J-100000D01*
G01*
X82217200Y-93365200D01*
G75*
G02*
X82117200Y-93465200I-100000J0D01*
G01*
X81917200Y-93465200D01*
G75*
G02*
X81817200Y-93365200I0J100000D01*
G01*
X81817200Y-92090200D01*
G75*
G02*
X81917200Y-91990200I100000J0D01*
G01*
G37*
G36*
G01*
X82567200Y-91990200D02*
X82767200Y-91990200D01*
G75*
G02*
X82867200Y-92090200I0J-100000D01*
G01*
X82867200Y-93365200D01*
G75*
G02*
X82767200Y-93465200I-100000J0D01*
G01*
X82567200Y-93465200D01*
G75*
G02*
X82467200Y-93365200I0J100000D01*
G01*
X82467200Y-92090200D01*
G75*
G02*
X82567200Y-91990200I100000J0D01*
G01*
G37*
G36*
G01*
X83217200Y-91990200D02*
X83417200Y-91990200D01*
G75*
G02*
X83517200Y-92090200I0J-100000D01*
G01*
X83517200Y-93365200D01*
G75*
G02*
X83417200Y-93465200I-100000J0D01*
G01*
X83217200Y-93465200D01*
G75*
G02*
X83117200Y-93365200I0J100000D01*
G01*
X83117200Y-92090200D01*
G75*
G02*
X83217200Y-91990200I100000J0D01*
G01*
G37*
G36*
G01*
X83867200Y-91990200D02*
X84067200Y-91990200D01*
G75*
G02*
X84167200Y-92090200I0J-100000D01*
G01*
X84167200Y-93365200D01*
G75*
G02*
X84067200Y-93465200I-100000J0D01*
G01*
X83867200Y-93465200D01*
G75*
G02*
X83767200Y-93365200I0J100000D01*
G01*
X83767200Y-92090200D01*
G75*
G02*
X83867200Y-91990200I100000J0D01*
G01*
G37*
G36*
G01*
X84517200Y-91990200D02*
X84717200Y-91990200D01*
G75*
G02*
X84817200Y-92090200I0J-100000D01*
G01*
X84817200Y-93365200D01*
G75*
G02*
X84717200Y-93465200I-100000J0D01*
G01*
X84517200Y-93465200D01*
G75*
G02*
X84417200Y-93365200I0J100000D01*
G01*
X84417200Y-92090200D01*
G75*
G02*
X84517200Y-91990200I100000J0D01*
G01*
G37*
G36*
G01*
X85167200Y-91990200D02*
X85367200Y-91990200D01*
G75*
G02*
X85467200Y-92090200I0J-100000D01*
G01*
X85467200Y-93365200D01*
G75*
G02*
X85367200Y-93465200I-100000J0D01*
G01*
X85167200Y-93465200D01*
G75*
G02*
X85067200Y-93365200I0J100000D01*
G01*
X85067200Y-92090200D01*
G75*
G02*
X85167200Y-91990200I100000J0D01*
G01*
G37*
G36*
G01*
X85817200Y-91990200D02*
X86017200Y-91990200D01*
G75*
G02*
X86117200Y-92090200I0J-100000D01*
G01*
X86117200Y-93365200D01*
G75*
G02*
X86017200Y-93465200I-100000J0D01*
G01*
X85817200Y-93465200D01*
G75*
G02*
X85717200Y-93365200I0J100000D01*
G01*
X85717200Y-92090200D01*
G75*
G02*
X85817200Y-91990200I100000J0D01*
G01*
G37*
G36*
G01*
X86467200Y-91990200D02*
X86667200Y-91990200D01*
G75*
G02*
X86767200Y-92090200I0J-100000D01*
G01*
X86767200Y-93365200D01*
G75*
G02*
X86667200Y-93465200I-100000J0D01*
G01*
X86467200Y-93465200D01*
G75*
G02*
X86367200Y-93365200I0J100000D01*
G01*
X86367200Y-92090200D01*
G75*
G02*
X86467200Y-91990200I100000J0D01*
G01*
G37*
G04 #@! TD*
D14*
G04 #@! TO.C,U2*
X114990800Y-78857200D03*
X115940800Y-78857200D03*
X116890800Y-78857200D03*
X116890800Y-76657200D03*
X114990800Y-76657200D03*
G04 #@! TD*
G04 #@! TO.C,U3*
G36*
G01*
X114194000Y-59921000D02*
X114194000Y-60221000D01*
G75*
G02*
X114044000Y-60371000I-150000J0D01*
G01*
X112394000Y-60371000D01*
G75*
G02*
X112244000Y-60221000I0J150000D01*
G01*
X112244000Y-59921000D01*
G75*
G02*
X112394000Y-59771000I150000J0D01*
G01*
X114044000Y-59771000D01*
G75*
G02*
X114194000Y-59921000I0J-150000D01*
G01*
G37*
G36*
G01*
X114194000Y-58651000D02*
X114194000Y-58951000D01*
G75*
G02*
X114044000Y-59101000I-150000J0D01*
G01*
X112394000Y-59101000D01*
G75*
G02*
X112244000Y-58951000I0J150000D01*
G01*
X112244000Y-58651000D01*
G75*
G02*
X112394000Y-58501000I150000J0D01*
G01*
X114044000Y-58501000D01*
G75*
G02*
X114194000Y-58651000I0J-150000D01*
G01*
G37*
G36*
G01*
X114194000Y-57381000D02*
X114194000Y-57681000D01*
G75*
G02*
X114044000Y-57831000I-150000J0D01*
G01*
X112394000Y-57831000D01*
G75*
G02*
X112244000Y-57681000I0J150000D01*
G01*
X112244000Y-57381000D01*
G75*
G02*
X112394000Y-57231000I150000J0D01*
G01*
X114044000Y-57231000D01*
G75*
G02*
X114194000Y-57381000I0J-150000D01*
G01*
G37*
G36*
G01*
X114194000Y-56111000D02*
X114194000Y-56411000D01*
G75*
G02*
X114044000Y-56561000I-150000J0D01*
G01*
X112394000Y-56561000D01*
G75*
G02*
X112244000Y-56411000I0J150000D01*
G01*
X112244000Y-56111000D01*
G75*
G02*
X112394000Y-55961000I150000J0D01*
G01*
X114044000Y-55961000D01*
G75*
G02*
X114194000Y-56111000I0J-150000D01*
G01*
G37*
G36*
G01*
X109244000Y-56111000D02*
X109244000Y-56411000D01*
G75*
G02*
X109094000Y-56561000I-150000J0D01*
G01*
X107444000Y-56561000D01*
G75*
G02*
X107294000Y-56411000I0J150000D01*
G01*
X107294000Y-56111000D01*
G75*
G02*
X107444000Y-55961000I150000J0D01*
G01*
X109094000Y-55961000D01*
G75*
G02*
X109244000Y-56111000I0J-150000D01*
G01*
G37*
G36*
G01*
X109244000Y-57381000D02*
X109244000Y-57681000D01*
G75*
G02*
X109094000Y-57831000I-150000J0D01*
G01*
X107444000Y-57831000D01*
G75*
G02*
X107294000Y-57681000I0J150000D01*
G01*
X107294000Y-57381000D01*
G75*
G02*
X107444000Y-57231000I150000J0D01*
G01*
X109094000Y-57231000D01*
G75*
G02*
X109244000Y-57381000I0J-150000D01*
G01*
G37*
G36*
G01*
X109244000Y-58651000D02*
X109244000Y-58951000D01*
G75*
G02*
X109094000Y-59101000I-150000J0D01*
G01*
X107444000Y-59101000D01*
G75*
G02*
X107294000Y-58951000I0J150000D01*
G01*
X107294000Y-58651000D01*
G75*
G02*
X107444000Y-58501000I150000J0D01*
G01*
X109094000Y-58501000D01*
G75*
G02*
X109244000Y-58651000I0J-150000D01*
G01*
G37*
G36*
G01*
X109244000Y-59921000D02*
X109244000Y-60221000D01*
G75*
G02*
X109094000Y-60371000I-150000J0D01*
G01*
X107444000Y-60371000D01*
G75*
G02*
X107294000Y-60221000I0J150000D01*
G01*
X107294000Y-59921000D01*
G75*
G02*
X107444000Y-59771000I150000J0D01*
G01*
X109094000Y-59771000D01*
G75*
G02*
X109244000Y-59921000I0J-150000D01*
G01*
G37*
G04 #@! TD*
G04 #@! TO.C,U4*
G36*
G01*
X112182000Y-67829000D02*
X112182000Y-67529000D01*
G75*
G02*
X112332000Y-67379000I150000J0D01*
G01*
X113982000Y-67379000D01*
G75*
G02*
X114132000Y-67529000I0J-150000D01*
G01*
X114132000Y-67829000D01*
G75*
G02*
X113982000Y-67979000I-150000J0D01*
G01*
X112332000Y-67979000D01*
G75*
G02*
X112182000Y-67829000I0J150000D01*
G01*
G37*
G36*
G01*
X112182000Y-69099000D02*
X112182000Y-68799000D01*
G75*
G02*
X112332000Y-68649000I150000J0D01*
G01*
X113982000Y-68649000D01*
G75*
G02*
X114132000Y-68799000I0J-150000D01*
G01*
X114132000Y-69099000D01*
G75*
G02*
X113982000Y-69249000I-150000J0D01*
G01*
X112332000Y-69249000D01*
G75*
G02*
X112182000Y-69099000I0J150000D01*
G01*
G37*
G36*
G01*
X112182000Y-70369000D02*
X112182000Y-70069000D01*
G75*
G02*
X112332000Y-69919000I150000J0D01*
G01*
X113982000Y-69919000D01*
G75*
G02*
X114132000Y-70069000I0J-150000D01*
G01*
X114132000Y-70369000D01*
G75*
G02*
X113982000Y-70519000I-150000J0D01*
G01*
X112332000Y-70519000D01*
G75*
G02*
X112182000Y-70369000I0J150000D01*
G01*
G37*
G36*
G01*
X112182000Y-71639000D02*
X112182000Y-71339000D01*
G75*
G02*
X112332000Y-71189000I150000J0D01*
G01*
X113982000Y-71189000D01*
G75*
G02*
X114132000Y-71339000I0J-150000D01*
G01*
X114132000Y-71639000D01*
G75*
G02*
X113982000Y-71789000I-150000J0D01*
G01*
X112332000Y-71789000D01*
G75*
G02*
X112182000Y-71639000I0J150000D01*
G01*
G37*
G36*
G01*
X107232000Y-71639000D02*
X107232000Y-71339000D01*
G75*
G02*
X107382000Y-71189000I150000J0D01*
G01*
X109032000Y-71189000D01*
G75*
G02*
X109182000Y-71339000I0J-150000D01*
G01*
X109182000Y-71639000D01*
G75*
G02*
X109032000Y-71789000I-150000J0D01*
G01*
X107382000Y-71789000D01*
G75*
G02*
X107232000Y-71639000I0J150000D01*
G01*
G37*
G36*
G01*
X107232000Y-70369000D02*
X107232000Y-70069000D01*
G75*
G02*
X107382000Y-69919000I150000J0D01*
G01*
X109032000Y-69919000D01*
G75*
G02*
X109182000Y-70069000I0J-150000D01*
G01*
X109182000Y-70369000D01*
G75*
G02*
X109032000Y-70519000I-150000J0D01*
G01*
X107382000Y-70519000D01*
G75*
G02*
X107232000Y-70369000I0J150000D01*
G01*
G37*
G36*
G01*
X107232000Y-69099000D02*
X107232000Y-68799000D01*
G75*
G02*
X107382000Y-68649000I150000J0D01*
G01*
X109032000Y-68649000D01*
G75*
G02*
X109182000Y-68799000I0J-150000D01*
G01*
X109182000Y-69099000D01*
G75*
G02*
X109032000Y-69249000I-150000J0D01*
G01*
X107382000Y-69249000D01*
G75*
G02*
X107232000Y-69099000I0J150000D01*
G01*
G37*
G36*
G01*
X107232000Y-67829000D02*
X107232000Y-67529000D01*
G75*
G02*
X107382000Y-67379000I150000J0D01*
G01*
X109032000Y-67379000D01*
G75*
G02*
X109182000Y-67529000I0J-150000D01*
G01*
X109182000Y-67829000D01*
G75*
G02*
X109032000Y-67979000I-150000J0D01*
G01*
X107382000Y-67979000D01*
G75*
G02*
X107232000Y-67829000I0J150000D01*
G01*
G37*
G04 #@! TD*
G04 #@! TO.C,R14*
G36*
G01*
X108267040Y-64844940D02*
X108267040Y-64369940D01*
G75*
G02*
X108504540Y-64132440I237500J0D01*
G01*
X109004540Y-64132440D01*
G75*
G02*
X109242040Y-64369940I0J-237500D01*
G01*
X109242040Y-64844940D01*
G75*
G02*
X109004540Y-65082440I-237500J0D01*
G01*
X108504540Y-65082440D01*
G75*
G02*
X108267040Y-64844940I0J237500D01*
G01*
G37*
G36*
G01*
X110092040Y-64844940D02*
X110092040Y-64369940D01*
G75*
G02*
X110329540Y-64132440I237500J0D01*
G01*
X110829540Y-64132440D01*
G75*
G02*
X111067040Y-64369940I0J-237500D01*
G01*
X111067040Y-64844940D01*
G75*
G02*
X110829540Y-65082440I-237500J0D01*
G01*
X110329540Y-65082440D01*
G75*
G02*
X110092040Y-64844940I0J237500D01*
G01*
G37*
G04 #@! TD*
M02*
