EESchema Schematic File Version 4
EELAYER 30 0
EELAYER END
$Descr A4 11693 8268
encoding utf-8
Sheet 1 1
Title ""
Date ""
Rev ""
Comp ""
Comment1 ""
Comment2 ""
Comment3 ""
Comment4 ""
$EndDescr
$Comp
L Interface_Optical:SFP+ J?
U 1 1 5FD709E1
P 6550 3850
AR Path="/60BBDBFB/5FD709E1" Ref="J?"  Part="1" 
AR Path="/60BBDBFB/5FD44D44/5FD709E1" Ref="J?"  Part="1" 
AR Path="/60BBDBFB/5FE02493/5FD709E1" Ref="J?"  Part="1" 
AR Path="/60BBDBFB/5FE91FD8/5FD709E1" Ref="J?"  Part="1" 
AR Path="/5FD709E1" Ref="J5"  Part="1" 
F 0 "J5" H 6550 4731 50  0000 C CNN
F 1 "SFP+" H 6550 4640 50  0000 C CNN
F 2 "Connector:Connector_SFP_and_Cage" H 6550 3000 50  0001 C CNN
F 3 "https://members.snia.org/document/dl/25892" H 6100 4500 50  0001 C CNN
	1    6550 3850
	1    0    0    -1  
$EndComp
Wire Wire Line
	6350 4550 6350 4650
Wire Wire Line
	6350 4650 6450 4650
Wire Wire Line
	6550 4650 6550 4550
Wire Wire Line
	6450 4550 6450 4650
Connection ~ 6450 4650
Wire Wire Line
	6450 4650 6550 4650
Wire Wire Line
	6450 4650 6450 4750
$Comp
L power:GND #PWR?
U 1 1 5FD709EE
P 6450 4750
AR Path="/60BBDBFB/5FD709EE" Ref="#PWR?"  Part="1" 
AR Path="/60BBDBFB/5FD44D44/5FD709EE" Ref="#PWR?"  Part="1" 
AR Path="/60BBDBFB/5FE02493/5FD709EE" Ref="#PWR?"  Part="1" 
AR Path="/60BBDBFB/5FE91FD8/5FD709EE" Ref="#PWR?"  Part="1" 
AR Path="/5FD709EE" Ref="#PWR0101"  Part="1" 
F 0 "#PWR0101" H 6450 4500 50  0001 C CNN
F 1 "GND" H 6455 4577 50  0000 C CNN
F 2 "" H 6450 4750 50  0001 C CNN
F 3 "" H 6450 4750 50  0001 C CNN
	1    6450 4750
	1    0    0    -1  
$EndComp
$Comp
L Device:L L?
U 1 1 5FD70A00
P 5600 1100
AR Path="/60BBDBFB/5FD70A00" Ref="L?"  Part="1" 
AR Path="/60BBDBFB/5FD44D44/5FD70A00" Ref="L?"  Part="1" 
AR Path="/60BBDBFB/5FE02493/5FD70A00" Ref="L?"  Part="1" 
AR Path="/60BBDBFB/5FE91FD8/5FD70A00" Ref="L?"  Part="1" 
AR Path="/5FD70A00" Ref="L1"  Part="1" 
F 0 "L1" V 5790 1100 50  0000 C CNN
F 1 "4u7" V 5699 1100 50  0000 C CNN
F 2 "Inductor_SMD:L_0603_1608Metric_Pad1.05x0.95mm_HandSolder" H 5600 1100 50  0001 C CNN
F 3 "~" H 5600 1100 50  0001 C CNN
	1    5600 1100
	0    -1   -1   0   
$EndComp
$Comp
L Device:C C?
U 1 1 5FD70A06
P 5900 1250
AR Path="/60BBDBFB/5FD70A06" Ref="C?"  Part="1" 
AR Path="/60BBDBFB/5FD44D44/5FD70A06" Ref="C?"  Part="1" 
AR Path="/60BBDBFB/5FE02493/5FD70A06" Ref="C?"  Part="1" 
AR Path="/60BBDBFB/5FE91FD8/5FD70A06" Ref="C?"  Part="1" 
AR Path="/5FD70A06" Ref="C7"  Part="1" 
F 0 "C7" H 6015 1296 50  0000 L CNN
F 1 "100n" H 6015 1205 50  0000 L CNN
F 2 "Capacitor_SMD:C_0603_1608Metric_Pad1.08x0.95mm_HandSolder" H 5938 1100 50  0001 C CNN
F 3 "~" H 5900 1250 50  0001 C CNN
	1    5900 1250
	-1   0    0    -1  
$EndComp
$Comp
L Device:CP C?
U 1 1 5FD70A0C
P 6250 1250
AR Path="/60BBDBFB/5FD70A0C" Ref="C?"  Part="1" 
AR Path="/60BBDBFB/5FD44D44/5FD70A0C" Ref="C?"  Part="1" 
AR Path="/60BBDBFB/5FE02493/5FD70A0C" Ref="C?"  Part="1" 
AR Path="/60BBDBFB/5FE91FD8/5FD70A0C" Ref="C?"  Part="1" 
AR Path="/5FD70A0C" Ref="C9"  Part="1" 
F 0 "C9" H 6368 1296 50  0000 L CNN
F 1 "22u" H 6368 1205 50  0000 L CNN
F 2 "Capacitor_SMD:CP_Elec_4x5.3" H 6288 1100 50  0001 C CNN
F 3 "~" H 6250 1250 50  0001 C CNN
	1    6250 1250
	-1   0    0    -1  
$EndComp
Wire Wire Line
	5750 1100 5900 1100
Wire Wire Line
	5900 1100 6250 1100
Connection ~ 5900 1100
Wire Wire Line
	6250 1400 5900 1400
$Comp
L Device:L L?
U 1 1 5FD70A18
P 5600 1650
AR Path="/60BBDBFB/5FD70A18" Ref="L?"  Part="1" 
AR Path="/60BBDBFB/5FD44D44/5FD70A18" Ref="L?"  Part="1" 
AR Path="/60BBDBFB/5FE02493/5FD70A18" Ref="L?"  Part="1" 
AR Path="/60BBDBFB/5FE91FD8/5FD70A18" Ref="L?"  Part="1" 
AR Path="/5FD70A18" Ref="L2"  Part="1" 
F 0 "L2" V 5790 1650 50  0000 C CNN
F 1 "4u7" V 5699 1650 50  0000 C CNN
F 2 "Inductor_SMD:L_0603_1608Metric_Pad1.05x0.95mm_HandSolder" H 5600 1650 50  0001 C CNN
F 3 "~" H 5600 1650 50  0001 C CNN
	1    5600 1650
	0    -1   -1   0   
$EndComp
$Comp
L Device:C C?
U 1 1 5FD70A1E
P 5900 1800
AR Path="/60BBDBFB/5FD70A1E" Ref="C?"  Part="1" 
AR Path="/60BBDBFB/5FD44D44/5FD70A1E" Ref="C?"  Part="1" 
AR Path="/60BBDBFB/5FE02493/5FD70A1E" Ref="C?"  Part="1" 
AR Path="/60BBDBFB/5FE91FD8/5FD70A1E" Ref="C?"  Part="1" 
AR Path="/5FD70A1E" Ref="C8"  Part="1" 
F 0 "C8" H 6015 1846 50  0000 L CNN
F 1 "100n" H 6015 1755 50  0000 L CNN
F 2 "Capacitor_SMD:C_0603_1608Metric_Pad1.08x0.95mm_HandSolder" H 5938 1650 50  0001 C CNN
F 3 "~" H 5900 1800 50  0001 C CNN
	1    5900 1800
	-1   0    0    -1  
$EndComp
$Comp
L Device:CP C?
U 1 1 5FD70A24
P 6250 1800
AR Path="/60BBDBFB/5FD70A24" Ref="C?"  Part="1" 
AR Path="/60BBDBFB/5FD44D44/5FD70A24" Ref="C?"  Part="1" 
AR Path="/60BBDBFB/5FE02493/5FD70A24" Ref="C?"  Part="1" 
AR Path="/60BBDBFB/5FE91FD8/5FD70A24" Ref="C?"  Part="1" 
AR Path="/5FD70A24" Ref="C10"  Part="1" 
F 0 "C10" H 6368 1846 50  0000 L CNN
F 1 "22u" H 6368 1755 50  0000 L CNN
F 2 "Capacitor_SMD:CP_Elec_4x5.3" H 6288 1650 50  0001 C CNN
F 3 "~" H 6250 1800 50  0001 C CNN
	1    6250 1800
	-1   0    0    -1  
$EndComp
Wire Wire Line
	5750 1650 5900 1650
Wire Wire Line
	5900 1650 6250 1650
Connection ~ 5900 1650
Wire Wire Line
	6250 1950 5900 1950
$Comp
L power:GND #PWR?
U 1 1 5FD70A35
P 6250 1950
AR Path="/60BBDBFB/5FD70A35" Ref="#PWR?"  Part="1" 
AR Path="/60BBDBFB/5FD44D44/5FD70A35" Ref="#PWR?"  Part="1" 
AR Path="/60BBDBFB/5FE02493/5FD70A35" Ref="#PWR?"  Part="1" 
AR Path="/60BBDBFB/5FE91FD8/5FD70A35" Ref="#PWR?"  Part="1" 
AR Path="/5FD70A35" Ref="#PWR0103"  Part="1" 
F 0 "#PWR0103" H 6250 1700 50  0001 C CNN
F 1 "GND" H 6255 1777 50  0000 C CNN
F 2 "" H 6250 1950 50  0001 C CNN
F 3 "" H 6250 1950 50  0001 C CNN
	1    6250 1950
	1    0    0    -1  
$EndComp
$Comp
L power:GND #PWR?
U 1 1 5FD70A3B
P 6250 1400
AR Path="/60BBDBFB/5FD70A3B" Ref="#PWR?"  Part="1" 
AR Path="/60BBDBFB/5FD44D44/5FD70A3B" Ref="#PWR?"  Part="1" 
AR Path="/60BBDBFB/5FE02493/5FD70A3B" Ref="#PWR?"  Part="1" 
AR Path="/60BBDBFB/5FE91FD8/5FD70A3B" Ref="#PWR?"  Part="1" 
AR Path="/5FD70A3B" Ref="#PWR0104"  Part="1" 
F 0 "#PWR0104" H 6250 1150 50  0001 C CNN
F 1 "GND" H 6255 1227 50  0000 C CNN
F 2 "" H 6250 1400 50  0001 C CNN
F 3 "" H 6250 1400 50  0001 C CNN
	1    6250 1400
	1    0    0    -1  
$EndComp
Connection ~ 6250 1400
Connection ~ 6250 1950
$Comp
L power:+3.3V #PWR?
U 1 1 5FD70A43
P 5450 950
AR Path="/60BBDBFB/5FD70A43" Ref="#PWR?"  Part="1" 
AR Path="/60BBDBFB/5FD44D44/5FD70A43" Ref="#PWR?"  Part="1" 
AR Path="/60BBDBFB/5FE02493/5FD70A43" Ref="#PWR?"  Part="1" 
AR Path="/60BBDBFB/5FE91FD8/5FD70A43" Ref="#PWR?"  Part="1" 
AR Path="/5FD70A43" Ref="#PWR0105"  Part="1" 
F 0 "#PWR0105" H 5450 800 50  0001 C CNN
F 1 "+3.3V" H 5465 1123 50  0000 C CNN
F 2 "" H 5450 950 50  0001 C CNN
F 3 "" H 5450 950 50  0001 C CNN
	1    5450 950 
	1    0    0    -1  
$EndComp
Wire Wire Line
	6250 1100 6400 1100
Connection ~ 6250 1100
Wire Wire Line
	6250 1650 6400 1650
Connection ~ 6250 1650
Text Label 6400 1100 0    50   ~ 0
VCCT
Text Label 6400 1650 0    50   ~ 0
VCCR
Wire Wire Line
	6450 3150 6350 3150
Wire Wire Line
	6550 3150 6650 3150
Text Label 6350 3150 2    50   ~ 0
VCCT
Text Label 6650 3150 0    50   ~ 0
VCCR
Wire Wire Line
	7050 3650 7150 3650
Wire Wire Line
	7050 3750 7150 3750
Wire Wire Line
	7050 3950 7150 3950
Wire Wire Line
	7050 4050 7150 4050
Wire Wire Line
	7050 3450 7150 3450
Wire Wire Line
	5950 3550 6050 3550
Wire Wire Line
	5950 3650 6050 3650
Wire Wire Line
	5950 3750 6050 3750
Wire Wire Line
	5950 3950 6050 3950
Wire Wire Line
	5950 4050 6050 4050
Wire Wire Line
	5950 4150 6050 4150
Text Label 7150 3450 0    50   ~ 0
RX_LOS
Text Label 7050 4250 0    50   ~ 0
TX_FAULT
Text Label 5950 3550 2    50   ~ 0
SDA
Text Label 5950 3650 2    50   ~ 0
SCL
Text Label 5950 3750 2    50   ~ 0
MOD_ABS
Text Label 5950 3950 2    50   ~ 0
RS0
Text Label 5950 4050 2    50   ~ 0
RS1
Text Label 5950 4150 2    50   ~ 0
TX_DISABLE
$Comp
L Device:LED D?
U 1 1 5FD92826
P 2050 6200
AR Path="/60BBDBFB/5FD92826" Ref="D?"  Part="1" 
AR Path="/60BBDBFB/5FD44D44/5FD92826" Ref="D?"  Part="1" 
AR Path="/60BBDBFB/5FE02493/5FD92826" Ref="D?"  Part="1" 
AR Path="/60BBDBFB/5FE91FD8/5FD92826" Ref="D?"  Part="1" 
AR Path="/5FD92826" Ref="D1"  Part="1" 
F 0 "D1" V 2089 6082 50  0000 R CNN
F 1 "LED" V 1998 6082 50  0000 R CNN
F 2 "LED_SMD:LED_0603_1608Metric_Pad1.05x0.95mm_HandSolder" H 2050 6200 50  0001 C CNN
F 3 "~" H 2050 6200 50  0001 C CNN
	1    2050 6200
	0    -1   -1   0   
$EndComp
$Comp
L Device:LED D?
U 1 1 5FD9282C
P 2400 6200
AR Path="/60BBDBFB/5FD9282C" Ref="D?"  Part="1" 
AR Path="/60BBDBFB/5FD44D44/5FD9282C" Ref="D?"  Part="1" 
AR Path="/60BBDBFB/5FE02493/5FD9282C" Ref="D?"  Part="1" 
AR Path="/60BBDBFB/5FE91FD8/5FD9282C" Ref="D?"  Part="1" 
AR Path="/5FD9282C" Ref="D2"  Part="1" 
F 0 "D2" V 2439 6082 50  0000 R CNN
F 1 "LED" V 2348 6082 50  0000 R CNN
F 2 "LED_SMD:LED_0603_1608Metric_Pad1.05x0.95mm_HandSolder" H 2400 6200 50  0001 C CNN
F 3 "~" H 2400 6200 50  0001 C CNN
	1    2400 6200
	0    -1   -1   0   
$EndComp
$Comp
L Device:R R?
U 1 1 5FD92832
P 2050 5800
AR Path="/60BBDBFB/5FD92832" Ref="R?"  Part="1" 
AR Path="/60BBDBFB/5FD44D44/5FD92832" Ref="R?"  Part="1" 
AR Path="/60BBDBFB/5FE02493/5FD92832" Ref="R?"  Part="1" 
AR Path="/60BBDBFB/5FE91FD8/5FD92832" Ref="R?"  Part="1" 
AR Path="/5FD92832" Ref="R3"  Part="1" 
F 0 "R3" H 2120 5846 50  0000 L CNN
F 1 "390" H 2120 5755 50  0000 L CNN
F 2 "Resistor_SMD:R_0603_1608Metric_Pad0.98x0.95mm_HandSolder" V 1980 5800 50  0001 C CNN
F 3 "~" H 2050 5800 50  0001 C CNN
	1    2050 5800
	1    0    0    -1  
$EndComp
$Comp
L Device:R R?
U 1 1 5FD92838
P 2400 5800
AR Path="/60BBDBFB/5FD92838" Ref="R?"  Part="1" 
AR Path="/60BBDBFB/5FD44D44/5FD92838" Ref="R?"  Part="1" 
AR Path="/60BBDBFB/5FE02493/5FD92838" Ref="R?"  Part="1" 
AR Path="/60BBDBFB/5FE91FD8/5FD92838" Ref="R?"  Part="1" 
AR Path="/5FD92838" Ref="R4"  Part="1" 
F 0 "R4" H 2470 5846 50  0000 L CNN
F 1 "390" H 2470 5755 50  0000 L CNN
F 2 "Resistor_SMD:R_0603_1608Metric_Pad0.98x0.95mm_HandSolder" V 2330 5800 50  0001 C CNN
F 3 "~" H 2400 5800 50  0001 C CNN
	1    2400 5800
	1    0    0    -1  
$EndComp
$Comp
L power:GND #PWR?
U 1 1 5FD9283E
P 2050 6450
AR Path="/60BBDBFB/5FD9283E" Ref="#PWR?"  Part="1" 
AR Path="/60BBDBFB/5FD44D44/5FD9283E" Ref="#PWR?"  Part="1" 
AR Path="/60BBDBFB/5FE02493/5FD9283E" Ref="#PWR?"  Part="1" 
AR Path="/60BBDBFB/5FE91FD8/5FD9283E" Ref="#PWR?"  Part="1" 
AR Path="/5FD9283E" Ref="#PWR0106"  Part="1" 
F 0 "#PWR0106" H 2050 6200 50  0001 C CNN
F 1 "GND" H 2055 6277 50  0000 C CNN
F 2 "" H 2050 6450 50  0001 C CNN
F 3 "" H 2050 6450 50  0001 C CNN
	1    2050 6450
	1    0    0    -1  
$EndComp
Wire Wire Line
	2050 6450 2050 6400
Wire Wire Line
	2400 6350 2400 6400
Wire Wire Line
	2400 6400 2050 6400
Connection ~ 2050 6400
Wire Wire Line
	2050 6400 2050 6350
Wire Wire Line
	2050 6050 2050 5950
Wire Wire Line
	2400 6050 2400 5950
Wire Wire Line
	2050 5650 2050 5600
Wire Wire Line
	2400 5650 2400 5600
Text Label 2050 5600 1    50   ~ 0
LED1
Text Label 2400 5600 1    50   ~ 0
LED2
$Comp
L Device:R R?
U 1 1 5F87E9EB
P 7050 1550
AR Path="/60BBDBFB/5F87E9EB" Ref="R?"  Part="1" 
AR Path="/60BBDBFB/5FD44D44/5F87E9EB" Ref="R?"  Part="1" 
AR Path="/60BBDBFB/5FE02493/5F87E9EB" Ref="R?"  Part="1" 
AR Path="/60BBDBFB/5FE91FD8/5F87E9EB" Ref="R?"  Part="1" 
AR Path="/5F87E9EB" Ref="R6"  Part="1" 
F 0 "R6" H 7120 1596 50  0000 L CNN
F 1 "4k7" H 7120 1505 50  0000 L CNN
F 2 "Resistor_SMD:R_0603_1608Metric_Pad0.98x0.95mm_HandSolder" V 6980 1550 50  0001 C CNN
F 3 "~" H 7050 1550 50  0001 C CNN
	1    7050 1550
	1    0    0    -1  
$EndComp
$Comp
L Device:R R?
U 1 1 5F887D84
P 8250 1550
AR Path="/60BBDBFB/5F887D84" Ref="R?"  Part="1" 
AR Path="/60BBDBFB/5FD44D44/5F887D84" Ref="R?"  Part="1" 
AR Path="/60BBDBFB/5FE02493/5F887D84" Ref="R?"  Part="1" 
AR Path="/60BBDBFB/5FE91FD8/5F887D84" Ref="R?"  Part="1" 
AR Path="/5F887D84" Ref="R10"  Part="1" 
F 0 "R10" H 8320 1596 50  0000 L CNN
F 1 "1k" H 8320 1505 50  0000 L CNN
F 2 "Resistor_SMD:R_0603_1608Metric_Pad0.98x0.95mm_HandSolder" V 8180 1550 50  0001 C CNN
F 3 "~" H 8250 1550 50  0001 C CNN
	1    8250 1550
	1    0    0    -1  
$EndComp
Wire Wire Line
	7050 1400 7050 1350
Wire Wire Line
	7050 1350 7350 1350
Wire Wire Line
	8550 1350 8550 1400
Connection ~ 7050 1350
Wire Wire Line
	7050 1350 7050 1300
Wire Wire Line
	8250 1400 8250 1350
Connection ~ 8250 1350
Wire Wire Line
	8250 1350 8550 1350
Wire Wire Line
	7950 1400 7950 1350
Connection ~ 7950 1350
Wire Wire Line
	7950 1350 8250 1350
Wire Wire Line
	7650 1400 7650 1350
Connection ~ 7650 1350
Wire Wire Line
	7650 1350 7950 1350
Wire Wire Line
	7350 1400 7350 1350
Connection ~ 7350 1350
Wire Wire Line
	7350 1350 7650 1350
Wire Wire Line
	7050 1700 7050 1800
Wire Wire Line
	7350 1700 7350 1800
Wire Wire Line
	7650 1700 7650 1800
Wire Wire Line
	7950 1700 7950 1800
Wire Wire Line
	8250 1700 8250 1800
Wire Wire Line
	8550 1700 8550 1800
$Comp
L power:+3.3V #PWR?
U 1 1 5F8AF87F
P 7050 1300
AR Path="/60BBDBFB/5F8AF87F" Ref="#PWR?"  Part="1" 
AR Path="/60BBDBFB/5FD44D44/5F8AF87F" Ref="#PWR?"  Part="1" 
AR Path="/60BBDBFB/5FE02493/5F8AF87F" Ref="#PWR?"  Part="1" 
AR Path="/60BBDBFB/5FE91FD8/5F8AF87F" Ref="#PWR?"  Part="1" 
AR Path="/5F8AF87F" Ref="#PWR0107"  Part="1" 
F 0 "#PWR0107" H 7050 1150 50  0001 C CNN
F 1 "+3.3V" H 7065 1473 50  0000 C CNN
F 2 "" H 7050 1300 50  0001 C CNN
F 3 "" H 7050 1300 50  0001 C CNN
	1    7050 1300
	1    0    0    -1  
$EndComp
Text Label 7050 1800 3    50   ~ 0
RX_LOS
Text Label 7350 1800 3    50   ~ 0
TX_FAULT
Text Label 7650 1800 3    50   ~ 0
MOD_ABS
Text Label 7950 1800 3    50   ~ 0
TX_DISABLE
Text Label 8250 1800 3    50   ~ 0
RS0
Text Label 8550 1800 3    50   ~ 0
RS1
$Comp
L Device:R R?
U 1 1 5F8B2DD1
P 7350 1550
AR Path="/60BBDBFB/5F8B2DD1" Ref="R?"  Part="1" 
AR Path="/60BBDBFB/5FD44D44/5F8B2DD1" Ref="R?"  Part="1" 
AR Path="/60BBDBFB/5FE02493/5F8B2DD1" Ref="R?"  Part="1" 
AR Path="/60BBDBFB/5FE91FD8/5F8B2DD1" Ref="R?"  Part="1" 
AR Path="/5F8B2DD1" Ref="R7"  Part="1" 
F 0 "R7" H 7420 1596 50  0000 L CNN
F 1 "4k7" H 7420 1505 50  0000 L CNN
F 2 "Resistor_SMD:R_0603_1608Metric_Pad0.98x0.95mm_HandSolder" V 7280 1550 50  0001 C CNN
F 3 "~" H 7350 1550 50  0001 C CNN
	1    7350 1550
	1    0    0    -1  
$EndComp
$Comp
L Device:R R?
U 1 1 5F8B3314
P 7650 1550
AR Path="/60BBDBFB/5F8B3314" Ref="R?"  Part="1" 
AR Path="/60BBDBFB/5FD44D44/5F8B3314" Ref="R?"  Part="1" 
AR Path="/60BBDBFB/5FE02493/5F8B3314" Ref="R?"  Part="1" 
AR Path="/60BBDBFB/5FE91FD8/5F8B3314" Ref="R?"  Part="1" 
AR Path="/5F8B3314" Ref="R8"  Part="1" 
F 0 "R8" H 7720 1596 50  0000 L CNN
F 1 "4k7" H 7720 1505 50  0000 L CNN
F 2 "Resistor_SMD:R_0603_1608Metric_Pad0.98x0.95mm_HandSolder" V 7580 1550 50  0001 C CNN
F 3 "~" H 7650 1550 50  0001 C CNN
	1    7650 1550
	1    0    0    -1  
$EndComp
$Comp
L Device:R R?
U 1 1 5F8B37F1
P 7950 1550
AR Path="/60BBDBFB/5F8B37F1" Ref="R?"  Part="1" 
AR Path="/60BBDBFB/5FD44D44/5F8B37F1" Ref="R?"  Part="1" 
AR Path="/60BBDBFB/5FE02493/5F8B37F1" Ref="R?"  Part="1" 
AR Path="/60BBDBFB/5FE91FD8/5F8B37F1" Ref="R?"  Part="1" 
AR Path="/5F8B37F1" Ref="R9"  Part="1" 
F 0 "R9" H 8020 1596 50  0000 L CNN
F 1 "4k7" H 8020 1505 50  0000 L CNN
F 2 "Resistor_SMD:R_0603_1608Metric_Pad0.98x0.95mm_HandSolder" V 7880 1550 50  0001 C CNN
F 3 "~" H 7950 1550 50  0001 C CNN
	1    7950 1550
	1    0    0    -1  
$EndComp
$Comp
L Device:R R?
U 1 1 5F887D8A
P 8550 1550
AR Path="/60BBDBFB/5F887D8A" Ref="R?"  Part="1" 
AR Path="/60BBDBFB/5FD44D44/5F887D8A" Ref="R?"  Part="1" 
AR Path="/60BBDBFB/5FE02493/5F887D8A" Ref="R?"  Part="1" 
AR Path="/60BBDBFB/5FE91FD8/5F887D8A" Ref="R?"  Part="1" 
AR Path="/5F887D8A" Ref="R11"  Part="1" 
F 0 "R11" H 8620 1596 50  0000 L CNN
F 1 "1k" H 8620 1505 50  0000 L CNN
F 2 "Resistor_SMD:R_0603_1608Metric_Pad0.98x0.95mm_HandSolder" V 8480 1550 50  0001 C CNN
F 3 "~" H 8550 1550 50  0001 C CNN
	1    8550 1550
	1    0    0    -1  
$EndComp
$Comp
L MCU_ST_STM32F0:STM32F042F6Px U1
U 1 1 5F8CD4A1
P 2100 3900
F 0 "U1" H 2100 3011 50  0000 C CNN
F 1 "STM32F042F6Px" H 2100 2920 50  0000 C CNN
F 2 "Package_SO:TSSOP-20_4.4x6.5mm_P0.65mm" H 1600 3200 50  0001 R CNN
F 3 "http://www.st.com/st-web-ui/static/active/en/resource/technical/document/datasheet/DM00105814.pdf" H 2100 3900 50  0001 C CNN
	1    2100 3900
	1    0    0    -1  
$EndComp
Wire Wire Line
	2700 4200 2800 4200
Wire Wire Line
	2700 4300 2800 4300
Text Label 2800 4200 0    50   ~ 0
USB-
Text Label 2800 4300 0    50   ~ 0
USB+
Wire Wire Line
	1900 3200 1900 3150
Wire Wire Line
	2000 3200 2000 3150
Wire Wire Line
	2000 3150 1900 3150
Connection ~ 1900 3150
Wire Wire Line
	1900 3150 1900 3050
$Comp
L power:+3.3V #PWR?
U 1 1 5F8DB0CA
P 1900 3050
AR Path="/60BBDBFB/5F8DB0CA" Ref="#PWR?"  Part="1" 
AR Path="/60BBDBFB/5FD44D44/5F8DB0CA" Ref="#PWR?"  Part="1" 
AR Path="/60BBDBFB/5FE02493/5F8DB0CA" Ref="#PWR?"  Part="1" 
AR Path="/60BBDBFB/5FE91FD8/5F8DB0CA" Ref="#PWR?"  Part="1" 
AR Path="/5F8DB0CA" Ref="#PWR0108"  Part="1" 
F 0 "#PWR0108" H 1900 2900 50  0001 C CNN
F 1 "+3.3V" H 1915 3223 50  0000 C CNN
F 2 "" H 1900 3050 50  0001 C CNN
F 3 "" H 1900 3050 50  0001 C CNN
	1    1900 3050
	1    0    0    -1  
$EndComp
$Comp
L power:GND #PWR?
U 1 1 5F8DC444
P 1700 4700
AR Path="/60BBDBFB/5F8DC444" Ref="#PWR?"  Part="1" 
AR Path="/60BBDBFB/5FD44D44/5F8DC444" Ref="#PWR?"  Part="1" 
AR Path="/60BBDBFB/5FE02493/5F8DC444" Ref="#PWR?"  Part="1" 
AR Path="/60BBDBFB/5FE91FD8/5F8DC444" Ref="#PWR?"  Part="1" 
AR Path="/5F8DC444" Ref="#PWR0109"  Part="1" 
F 0 "#PWR0109" H 1700 4450 50  0001 C CNN
F 1 "GND" H 1705 4527 50  0000 C CNN
F 2 "" H 1700 4700 50  0001 C CNN
F 3 "" H 1700 4700 50  0001 C CNN
	1    1700 4700
	1    0    0    -1  
$EndComp
Wire Wire Line
	1700 4700 1900 4700
Wire Wire Line
	2700 3400 2800 3400
Wire Wire Line
	2700 3500 2800 3500
Wire Wire Line
	2700 3800 2800 3800
Wire Wire Line
	2700 3900 2800 3900
Wire Wire Line
	2700 4000 2800 4000
Wire Wire Line
	2700 4100 2800 4100
Wire Wire Line
	2700 4400 2800 4400
Wire Wire Line
	2700 4500 2800 4500
$Comp
L Device:LED D?
U 1 1 5F8FCADA
P 1800 1300
AR Path="/60BBDBFB/5F8FCADA" Ref="D?"  Part="1" 
AR Path="/60BBDBFB/5FD44D44/5F8FCADA" Ref="D?"  Part="1" 
AR Path="/60BBDBFB/5FE02493/5F8FCADA" Ref="D?"  Part="1" 
AR Path="/60BBDBFB/5FE91FD8/5F8FCADA" Ref="D?"  Part="1" 
AR Path="/5F8FCADA" Ref="D4"  Part="1" 
F 0 "D4" V 1839 1182 50  0000 R CNN
F 1 "LED" V 1748 1182 50  0000 R CNN
F 2 "LED_SMD:LED_0603_1608Metric_Pad1.05x0.95mm_HandSolder" H 1800 1300 50  0001 C CNN
F 3 "~" H 1800 1300 50  0001 C CNN
	1    1800 1300
	0    -1   -1   0   
$EndComp
$Comp
L Device:R R?
U 1 1 5F8FF583
P 1800 1700
AR Path="/60BBDBFB/5F8FF583" Ref="R?"  Part="1" 
AR Path="/60BBDBFB/5FD44D44/5F8FF583" Ref="R?"  Part="1" 
AR Path="/60BBDBFB/5FE02493/5F8FF583" Ref="R?"  Part="1" 
AR Path="/60BBDBFB/5FE91FD8/5F8FF583" Ref="R?"  Part="1" 
AR Path="/5F8FF583" Ref="R2"  Part="1" 
F 0 "R2" H 1870 1746 50  0000 L CNN
F 1 "390" H 1870 1655 50  0000 L CNN
F 2 "Resistor_SMD:R_0603_1608Metric_Pad0.98x0.95mm_HandSolder" V 1730 1700 50  0001 C CNN
F 3 "~" H 1800 1700 50  0001 C CNN
	1    1800 1700
	1    0    0    -1  
$EndComp
Wire Wire Line
	1800 1450 1800 1550
Wire Wire Line
	1800 1850 1800 1900
Wire Wire Line
	1800 1150 1800 1050
$Comp
L power:GND #PWR?
U 1 1 5F94A394
P 1800 1900
AR Path="/60BBDBFB/5F94A394" Ref="#PWR?"  Part="1" 
AR Path="/60BBDBFB/5FD44D44/5F94A394" Ref="#PWR?"  Part="1" 
AR Path="/60BBDBFB/5FE02493/5F94A394" Ref="#PWR?"  Part="1" 
AR Path="/60BBDBFB/5FE91FD8/5F94A394" Ref="#PWR?"  Part="1" 
AR Path="/5F94A394" Ref="#PWR0110"  Part="1" 
F 0 "#PWR0110" H 1800 1650 50  0001 C CNN
F 1 "GND" H 1805 1727 50  0000 C CNN
F 2 "" H 1800 1900 50  0001 C CNN
F 3 "" H 1800 1900 50  0001 C CNN
	1    1800 1900
	1    0    0    -1  
$EndComp
$Comp
L power:+5V #PWR0111
U 1 1 5F94B4BD
P 1800 1050
F 0 "#PWR0111" H 1800 900 50  0001 C CNN
F 1 "+5V" H 1815 1223 50  0000 C CNN
F 2 "" H 1800 1050 50  0001 C CNN
F 3 "" H 1800 1050 50  0001 C CNN
	1    1800 1050
	1    0    0    -1  
$EndComp
$Comp
L Connector:USB_B_Micro J2
U 1 1 5F94D0AC
P 950 1350
F 0 "J2" H 1007 1817 50  0000 C CNN
F 1 "USB_B_Micro" H 1007 1726 50  0000 C CNN
F 2 "Connector_USB:USB_Micro-AB_Molex_47590-0001" H 1100 1300 50  0001 C CNN
F 3 "~" H 1100 1300 50  0001 C CNN
	1    950  1350
	1    0    0    -1  
$EndComp
Wire Wire Line
	850  1750 850  1800
Wire Wire Line
	950  1750 950  1800
Wire Wire Line
	950  1800 850  1800
Connection ~ 850  1800
Wire Wire Line
	850  1800 850  1900
$Comp
L power:GND #PWR?
U 1 1 5F9531BB
P 850 1900
AR Path="/60BBDBFB/5F9531BB" Ref="#PWR?"  Part="1" 
AR Path="/60BBDBFB/5FD44D44/5F9531BB" Ref="#PWR?"  Part="1" 
AR Path="/60BBDBFB/5FE02493/5F9531BB" Ref="#PWR?"  Part="1" 
AR Path="/60BBDBFB/5FE91FD8/5F9531BB" Ref="#PWR?"  Part="1" 
AR Path="/5F9531BB" Ref="#PWR0112"  Part="1" 
F 0 "#PWR0112" H 850 1650 50  0001 C CNN
F 1 "GND" H 855 1727 50  0000 C CNN
F 2 "" H 850 1900 50  0001 C CNN
F 3 "" H 850 1900 50  0001 C CNN
	1    850  1900
	1    0    0    -1  
$EndComp
$Comp
L power:+5V #PWR0113
U 1 1 5F9536B8
P 1350 1050
F 0 "#PWR0113" H 1350 900 50  0001 C CNN
F 1 "+5V" H 1365 1223 50  0000 C CNN
F 2 "" H 1350 1050 50  0001 C CNN
F 3 "" H 1350 1050 50  0001 C CNN
	1    1350 1050
	1    0    0    -1  
$EndComp
Wire Wire Line
	1350 1050 1350 1150
Wire Wire Line
	1350 1150 1250 1150
$Comp
L Device:R R?
U 1 1 5F956A97
P 1350 1700
AR Path="/60BBDBFB/5F956A97" Ref="R?"  Part="1" 
AR Path="/60BBDBFB/5FD44D44/5F956A97" Ref="R?"  Part="1" 
AR Path="/60BBDBFB/5FE02493/5F956A97" Ref="R?"  Part="1" 
AR Path="/60BBDBFB/5FE91FD8/5F956A97" Ref="R?"  Part="1" 
AR Path="/5F956A97" Ref="R1"  Part="1" 
F 0 "R1" H 1420 1746 50  0000 L CNN
F 1 "100k" H 1420 1655 50  0000 L CNN
F 2 "Resistor_SMD:R_0603_1608Metric_Pad0.98x0.95mm_HandSolder" V 1280 1700 50  0001 C CNN
F 3 "~" H 1350 1700 50  0001 C CNN
	1    1350 1700
	1    0    0    -1  
$EndComp
Wire Wire Line
	1250 1550 1350 1550
$Comp
L power:GND #PWR?
U 1 1 5F959F11
P 1350 1900
AR Path="/60BBDBFB/5F959F11" Ref="#PWR?"  Part="1" 
AR Path="/60BBDBFB/5FD44D44/5F959F11" Ref="#PWR?"  Part="1" 
AR Path="/60BBDBFB/5FE02493/5F959F11" Ref="#PWR?"  Part="1" 
AR Path="/60BBDBFB/5FE91FD8/5F959F11" Ref="#PWR?"  Part="1" 
AR Path="/5F959F11" Ref="#PWR0114"  Part="1" 
F 0 "#PWR0114" H 1350 1650 50  0001 C CNN
F 1 "GND" H 1355 1727 50  0000 C CNN
F 2 "" H 1350 1900 50  0001 C CNN
F 3 "" H 1350 1900 50  0001 C CNN
	1    1350 1900
	1    0    0    -1  
$EndComp
Wire Wire Line
	1350 1850 1350 1900
Wire Wire Line
	1250 1350 1350 1350
Wire Wire Line
	1250 1450 1350 1450
Text Label 1350 1350 0    50   ~ 0
USB+
Text Label 1350 1450 0    50   ~ 0
USB-
$Comp
L Device:CP C?
U 1 1 5F976EA5
P 2400 1450
AR Path="/60BBDBFB/5F976EA5" Ref="C?"  Part="1" 
AR Path="/60BBDBFB/5FD44D44/5F976EA5" Ref="C?"  Part="1" 
AR Path="/60BBDBFB/5FE02493/5F976EA5" Ref="C?"  Part="1" 
AR Path="/60BBDBFB/5FE91FD8/5F976EA5" Ref="C?"  Part="1" 
AR Path="/5F976EA5" Ref="C1"  Part="1" 
F 0 "C1" H 2518 1496 50  0000 L CNN
F 1 "22u" H 2518 1405 50  0000 L CNN
F 2 "Capacitor_SMD:CP_Elec_4x5.3" H 2438 1300 50  0001 C CNN
F 3 "~" H 2400 1450 50  0001 C CNN
	1    2400 1450
	-1   0    0    -1  
$EndComp
$Comp
L Device:C C?
U 1 1 5F97851D
P 2800 1450
AR Path="/60BBDBFB/5F97851D" Ref="C?"  Part="1" 
AR Path="/60BBDBFB/5FD44D44/5F97851D" Ref="C?"  Part="1" 
AR Path="/60BBDBFB/5FE02493/5F97851D" Ref="C?"  Part="1" 
AR Path="/60BBDBFB/5FE91FD8/5F97851D" Ref="C?"  Part="1" 
AR Path="/5F97851D" Ref="C2"  Part="1" 
F 0 "C2" H 2915 1496 50  0000 L CNN
F 1 "100n" H 2915 1405 50  0000 L CNN
F 2 "Capacitor_SMD:C_0603_1608Metric_Pad1.08x0.95mm_HandSolder" H 2838 1300 50  0001 C CNN
F 3 "~" H 2800 1450 50  0001 C CNN
	1    2800 1450
	-1   0    0    -1  
$EndComp
Wire Wire Line
	2400 1300 2400 1150
Wire Wire Line
	2800 1300 2800 1250
Wire Wire Line
	2800 1150 2400 1150
Connection ~ 2400 1150
Wire Wire Line
	2400 1150 2400 1050
Wire Wire Line
	2400 1600 2400 1850
Wire Wire Line
	2800 1600 2800 1850
Wire Wire Line
	2800 1850 2400 1850
Connection ~ 2400 1850
Wire Wire Line
	2400 1850 2400 1900
$Comp
L power:+5V #PWR0115
U 1 1 5F986425
P 2400 1050
F 0 "#PWR0115" H 2400 900 50  0001 C CNN
F 1 "+5V" H 2415 1223 50  0000 C CNN
F 2 "" H 2400 1050 50  0001 C CNN
F 3 "" H 2400 1050 50  0001 C CNN
	1    2400 1050
	1    0    0    -1  
$EndComp
$Comp
L power:GND #PWR?
U 1 1 5F986889
P 2400 1900
AR Path="/60BBDBFB/5F986889" Ref="#PWR?"  Part="1" 
AR Path="/60BBDBFB/5FD44D44/5F986889" Ref="#PWR?"  Part="1" 
AR Path="/60BBDBFB/5FE02493/5F986889" Ref="#PWR?"  Part="1" 
AR Path="/60BBDBFB/5FE91FD8/5F986889" Ref="#PWR?"  Part="1" 
AR Path="/5F986889" Ref="#PWR0116"  Part="1" 
F 0 "#PWR0116" H 2400 1650 50  0001 C CNN
F 1 "GND" H 2405 1727 50  0000 C CNN
F 2 "" H 2400 1900 50  0001 C CNN
F 3 "" H 2400 1900 50  0001 C CNN
	1    2400 1900
	1    0    0    -1  
$EndComp
$Comp
L Device:CP C?
U 1 1 5F988A45
P 3800 1450
AR Path="/60BBDBFB/5F988A45" Ref="C?"  Part="1" 
AR Path="/60BBDBFB/5FD44D44/5F988A45" Ref="C?"  Part="1" 
AR Path="/60BBDBFB/5FE02493/5F988A45" Ref="C?"  Part="1" 
AR Path="/60BBDBFB/5FE91FD8/5F988A45" Ref="C?"  Part="1" 
AR Path="/5F988A45" Ref="C3"  Part="1" 
F 0 "C3" H 3918 1496 50  0000 L CNN
F 1 "22u" H 3918 1405 50  0000 L CNN
F 2 "Capacitor_SMD:CP_Elec_4x5.3" H 3838 1300 50  0001 C CNN
F 3 "~" H 3800 1450 50  0001 C CNN
	1    3800 1450
	-1   0    0    -1  
$EndComp
$Comp
L Device:C C?
U 1 1 5F989763
P 4250 1450
AR Path="/60BBDBFB/5F989763" Ref="C?"  Part="1" 
AR Path="/60BBDBFB/5FD44D44/5F989763" Ref="C?"  Part="1" 
AR Path="/60BBDBFB/5FE02493/5F989763" Ref="C?"  Part="1" 
AR Path="/60BBDBFB/5FE91FD8/5F989763" Ref="C?"  Part="1" 
AR Path="/5F989763" Ref="C4"  Part="1" 
F 0 "C4" H 4365 1496 50  0000 L CNN
F 1 "1u" H 4365 1405 50  0000 L CNN
F 2 "Capacitor_SMD:C_0603_1608Metric_Pad1.08x0.95mm_HandSolder" H 4288 1300 50  0001 C CNN
F 3 "~" H 4250 1450 50  0001 C CNN
	1    4250 1450
	-1   0    0    -1  
$EndComp
Wire Wire Line
	3800 1600 3800 1850
Wire Wire Line
	3800 1850 4250 1850
Wire Wire Line
	4250 1850 4250 1600
Wire Wire Line
	3800 1300 3800 1150
Wire Wire Line
	3800 1150 4250 1150
Wire Wire Line
	4250 1150 4250 1300
Wire Wire Line
	4250 1150 4250 1050
Connection ~ 4250 1150
Wire Wire Line
	2800 1850 3300 1850
Connection ~ 2800 1850
Connection ~ 3800 1850
$Comp
L power:+3.3V #PWR?
U 1 1 5F99C94C
P 4250 1050
AR Path="/60BBDBFB/5F99C94C" Ref="#PWR?"  Part="1" 
AR Path="/60BBDBFB/5FD44D44/5F99C94C" Ref="#PWR?"  Part="1" 
AR Path="/60BBDBFB/5FE02493/5F99C94C" Ref="#PWR?"  Part="1" 
AR Path="/60BBDBFB/5FE91FD8/5F99C94C" Ref="#PWR?"  Part="1" 
AR Path="/5F99C94C" Ref="#PWR0117"  Part="1" 
F 0 "#PWR0117" H 4250 900 50  0001 C CNN
F 1 "+3.3V" H 4265 1223 50  0000 C CNN
F 2 "" H 4250 1050 50  0001 C CNN
F 3 "" H 4250 1050 50  0001 C CNN
	1    4250 1050
	1    0    0    -1  
$EndComp
$Comp
L Regulator_Linear:TLV75533PDBV U2
U 1 1 5F9B1FF9
P 3300 1250
F 0 "U2" H 3300 1592 50  0000 C CNN
F 1 "TLV75533PDBV" H 3300 1501 50  0000 C CNN
F 2 "Package_TO_SOT_SMD:SOT-23-5" H 3300 1575 50  0001 C CIN
F 3 "http://www.ti.com/lit/ds/symlink/tlv755p.pdf" H 3300 1300 50  0001 C CNN
	1    3300 1250
	1    0    0    -1  
$EndComp
Wire Wire Line
	3000 1250 2800 1250
Connection ~ 2800 1250
Wire Wire Line
	2800 1250 2800 1150
Wire Wire Line
	3000 1150 2800 1150
Connection ~ 2800 1150
Wire Wire Line
	3600 1150 3800 1150
Connection ~ 3800 1150
Wire Wire Line
	3300 1550 3300 1850
Connection ~ 3300 1850
Wire Wire Line
	3300 1850 3800 1850
Wire Wire Line
	4800 4000 4900 4000
Wire Wire Line
	4800 4100 4900 4100
Wire Wire Line
	4300 4000 4200 4000
Wire Wire Line
	4300 4100 4200 4100
Text Label 7150 3650 0    50   ~ 0
RX+
Text Label 7150 3750 0    50   ~ 0
RX-
Text Label 7150 3950 0    50   ~ 0
TX+
Text Label 7150 4050 0    50   ~ 0
TX-
Wire Wire Line
	1500 4100 1400 4100
Text Label 1400 4100 2    50   ~ 0
SDA
Text Label 1400 4200 2    50   ~ 0
SCL
Wire Wire Line
	1400 4200 1500 4200
Wire Wire Line
	2700 3600 2900 3600
Text Label 2900 3600 0    50   ~ 0
TX
Wire Wire Line
	2700 3700 2900 3700
Text Label 2900 3700 0    50   ~ 0
RX
$Comp
L ADN4662BRZ:ADN4662BRZ U4
U 1 1 5FA3EE8F
P 4000 3100
F 0 "U4" H 4600 3365 50  0000 C CNN
F 1 "ADN4662BRZ" H 4600 3274 50  0000 C CNN
F 2 "Package_SO:SOIC-8_3.9x4.9mm_P1.27mm" H 5050 3200 50  0001 L CNN
F 3 "http://uk.rs-online.com/web/p/products/8197281" H 5050 3100 50  0001 L CNN
F 4 "Analog Devices ADN4662BRZ Line Receiver, EIA/TIA-644, 3.3 V, 8-Pin SOIC" H 5050 3000 50  0001 L CNN "Description"
F 5 "1.75" H 5050 2900 50  0001 L CNN "Height"
F 6 "Analog Devices" H 5050 2800 50  0001 L CNN "Manufacturer_Name"
F 7 "ADN4662BRZ" H 5050 2700 50  0001 L CNN "Manufacturer_Part_Number"
F 8 "ADN4662BRZ" H 5050 2600 50  0001 L CNN "Arrow Part Number"
F 9 "http://www.arrow.com/en/products/adn4662brz/analog-devices" H 5050 2500 50  0001 L CNN "Arrow Price/Stock"
F 10 "584-ADN4662BRZ" H 5050 2400 50  0001 L CNN "Mouser Part Number"
F 11 "https://www.mouser.co.uk/ProductDetail/Analog-Devices/ADN4662BRZ?qs=BpaRKvA4VqFTuu9pUKF89w%3D%3D" H 5050 2300 50  0001 L CNN "Mouser Price/Stock"
	1    4000 3100
	1    0    0    -1  
$EndComp
Wire Wire Line
	4000 3200 3850 3200
Wire Wire Line
	3800 3100 4000 3100
Wire Wire Line
	5300 3400 5300 3500
Wire Wire Line
	5200 3400 5300 3400
Wire Wire Line
	5200 3100 5300 3100
Wire Wire Line
	5300 3100 5300 3000
Wire Wire Line
	5200 3200 5300 3200
$Comp
L power:+3.3V #PWR?
U 1 1 5FA62C38
P 5300 3000
AR Path="/60BBDBFB/5FA62C38" Ref="#PWR?"  Part="1" 
AR Path="/60BBDBFB/5FD44D44/5FA62C38" Ref="#PWR?"  Part="1" 
AR Path="/60BBDBFB/5FE02493/5FA62C38" Ref="#PWR?"  Part="1" 
AR Path="/60BBDBFB/5FE91FD8/5FA62C38" Ref="#PWR?"  Part="1" 
AR Path="/5FA62C38" Ref="#PWR0118"  Part="1" 
F 0 "#PWR0118" H 5300 2850 50  0001 C CNN
F 1 "+3.3V" H 5315 3173 50  0000 C CNN
F 2 "" H 5300 3000 50  0001 C CNN
F 3 "" H 5300 3000 50  0001 C CNN
	1    5300 3000
	1    0    0    -1  
$EndComp
$Comp
L power:GND #PWR?
U 1 1 5FA63659
P 5300 3500
AR Path="/60BBDBFB/5FA63659" Ref="#PWR?"  Part="1" 
AR Path="/60BBDBFB/5FD44D44/5FA63659" Ref="#PWR?"  Part="1" 
AR Path="/60BBDBFB/5FE02493/5FA63659" Ref="#PWR?"  Part="1" 
AR Path="/60BBDBFB/5FE91FD8/5FA63659" Ref="#PWR?"  Part="1" 
AR Path="/5FA63659" Ref="#PWR0119"  Part="1" 
F 0 "#PWR0119" H 5300 3250 50  0001 C CNN
F 1 "GND" H 5305 3327 50  0000 C CNN
F 2 "" H 5300 3500 50  0001 C CNN
F 3 "" H 5300 3500 50  0001 C CNN
	1    5300 3500
	1    0    0    -1  
$EndComp
Text Label 5300 3200 0    50   ~ 0
RX
$Comp
L ADN4661BRZ-REEL7:ADN4661BRZ-REEL7 U3
U 1 1 5FA6C9FA
P 3850 4650
F 0 "U3" H 4500 4915 50  0000 C CNN
F 1 "ADN4661BRZ-REEL7" H 4500 4824 50  0000 C CNN
F 2 "Package_SO:SOIC-8_3.9x4.9mm_P1.27mm" H 5000 4750 50  0001 L CNN
F 3 "https://componentsearchengine.com/Datasheets/1/ADN4661BRZ-REEL7.pdf" H 5000 4650 50  0001 L CNN
F 4 "High Speed Differential Driver" H 5000 4550 50  0001 L CNN "Description"
F 5 "1.75" H 5000 4450 50  0001 L CNN "Height"
F 6 "Analog Devices" H 5000 4350 50  0001 L CNN "Manufacturer_Name"
F 7 "ADN4661BRZ-REEL7" H 5000 4250 50  0001 L CNN "Manufacturer_Part_Number"
F 8 "ADN4661BRZ-REEL7" H 5000 4150 50  0001 L CNN "Arrow Part Number"
F 9 "https://www.arrow.com/en/products/adn4661brz-reel7/analog-devices" H 5000 4050 50  0001 L CNN "Arrow Price/Stock"
F 10 "584-ADN4661BRZ-R7" H 5000 3950 50  0001 L CNN "Mouser Part Number"
F 11 "https://www.mouser.com/Search/Refine.aspx?Keyword=584-ADN4661BRZ-R7" H 5000 3850 50  0001 L CNN "Mouser Price/Stock"
	1    3850 4650
	1    0    0    -1  
$EndComp
Wire Wire Line
	5150 4650 5250 4650
Wire Wire Line
	5150 4750 5300 4750
Wire Wire Line
	3850 4650 3750 4650
Wire Wire Line
	3750 4650 3750 4550
Wire Wire Line
	3850 4950 3750 4950
Wire Wire Line
	3750 4950 3750 5050
Wire Wire Line
	3850 4750 3750 4750
$Comp
L power:+3.3V #PWR?
U 1 1 5FA8E172
P 3750 4550
AR Path="/60BBDBFB/5FA8E172" Ref="#PWR?"  Part="1" 
AR Path="/60BBDBFB/5FD44D44/5FA8E172" Ref="#PWR?"  Part="1" 
AR Path="/60BBDBFB/5FE02493/5FA8E172" Ref="#PWR?"  Part="1" 
AR Path="/60BBDBFB/5FE91FD8/5FA8E172" Ref="#PWR?"  Part="1" 
AR Path="/5FA8E172" Ref="#PWR0120"  Part="1" 
F 0 "#PWR0120" H 3750 4400 50  0001 C CNN
F 1 "+3.3V" H 3765 4723 50  0000 C CNN
F 2 "" H 3750 4550 50  0001 C CNN
F 3 "" H 3750 4550 50  0001 C CNN
	1    3750 4550
	1    0    0    -1  
$EndComp
$Comp
L power:GND #PWR?
U 1 1 5FA8E62E
P 3750 5050
AR Path="/60BBDBFB/5FA8E62E" Ref="#PWR?"  Part="1" 
AR Path="/60BBDBFB/5FD44D44/5FA8E62E" Ref="#PWR?"  Part="1" 
AR Path="/60BBDBFB/5FE02493/5FA8E62E" Ref="#PWR?"  Part="1" 
AR Path="/60BBDBFB/5FE91FD8/5FA8E62E" Ref="#PWR?"  Part="1" 
AR Path="/5FA8E62E" Ref="#PWR0121"  Part="1" 
F 0 "#PWR0121" H 3750 4800 50  0001 C CNN
F 1 "GND" H 3755 4877 50  0000 C CNN
F 2 "" H 3750 5050 50  0001 C CNN
F 3 "" H 3750 5050 50  0001 C CNN
	1    3750 5050
	1    0    0    -1  
$EndComp
Text Label 3750 4750 2    50   ~ 0
TX
Text Label 2800 3900 0    50   ~ 0
MOD_ABS
Text Label 2800 4000 0    50   ~ 0
TX_DISABLE
Text Label 2800 3800 0    50   ~ 0
RS0
Text Label 2800 3500 0    50   ~ 0
RS1
Text Label 2800 3400 0    50   ~ 0
RX_LOS
Text Label 2800 4100 0    50   ~ 0
TX_FAULT
Text Label 1450 4400 2    50   ~ 0
LED1
Text Label 2800 4400 0    50   ~ 0
LED2
$Comp
L Connector_Generic:Conn_01x02 RST1
U 1 1 5FB3CC2A
P 1150 3500
F 0 "RST1" H 1068 3175 50  0000 C CNN
F 1 "Conn_01x02" H 1068 3266 50  0000 C CNN
F 2 "Connector_PinHeader_2.54mm:PinHeader_1x02_P2.54mm_Vertical" H 1150 3500 50  0001 C CNN
F 3 "~" H 1150 3500 50  0001 C CNN
	1    1150 3500
	-1   0    0    1   
$EndComp
$Comp
L power:GND #PWR?
U 1 1 5FB3E70C
P 1350 3600
AR Path="/60BBDBFB/5FB3E70C" Ref="#PWR?"  Part="1" 
AR Path="/60BBDBFB/5FD44D44/5FB3E70C" Ref="#PWR?"  Part="1" 
AR Path="/60BBDBFB/5FE02493/5FB3E70C" Ref="#PWR?"  Part="1" 
AR Path="/60BBDBFB/5FE91FD8/5FB3E70C" Ref="#PWR?"  Part="1" 
AR Path="/5FB3E70C" Ref="#PWR0122"  Part="1" 
F 0 "#PWR0122" H 1350 3350 50  0001 C CNN
F 1 "GND" H 1355 3427 50  0000 C CNN
F 2 "" H 1350 3600 50  0001 C CNN
F 3 "" H 1350 3600 50  0001 C CNN
	1    1350 3600
	1    0    0    -1  
$EndComp
Wire Wire Line
	1350 3400 1500 3400
Wire Wire Line
	1350 3500 1350 3600
$Comp
L power:+3.3V #PWR?
U 1 1 5FB4C3A7
P 1200 4100
AR Path="/60BBDBFB/5FB4C3A7" Ref="#PWR?"  Part="1" 
AR Path="/60BBDBFB/5FD44D44/5FB4C3A7" Ref="#PWR?"  Part="1" 
AR Path="/60BBDBFB/5FE02493/5FB4C3A7" Ref="#PWR?"  Part="1" 
AR Path="/60BBDBFB/5FE91FD8/5FB4C3A7" Ref="#PWR?"  Part="1" 
AR Path="/5FB4C3A7" Ref="#PWR0123"  Part="1" 
F 0 "#PWR0123" H 1200 3950 50  0001 C CNN
F 1 "+3.3V" H 1215 4273 50  0000 C CNN
F 2 "" H 1200 4100 50  0001 C CNN
F 3 "" H 1200 4100 50  0001 C CNN
	1    1200 4100
	1    0    0    -1  
$EndComp
Wire Wire Line
	1050 4400 1200 4400
Wire Wire Line
	1200 4400 1200 4100
Wire Wire Line
	1050 4500 1500 4500
$Comp
L Device:R R?
U 1 1 5F8C8754
P 8850 1550
AR Path="/60BBDBFB/5F8C8754" Ref="R?"  Part="1" 
AR Path="/60BBDBFB/5FD44D44/5F8C8754" Ref="R?"  Part="1" 
AR Path="/60BBDBFB/5FE02493/5F8C8754" Ref="R?"  Part="1" 
AR Path="/60BBDBFB/5FE91FD8/5F8C8754" Ref="R?"  Part="1" 
AR Path="/5F8C8754" Ref="R12"  Part="1" 
F 0 "R12" H 8920 1596 50  0000 L CNN
F 1 "4k7" H 8920 1505 50  0000 L CNN
F 2 "Resistor_SMD:R_0603_1608Metric_Pad0.98x0.95mm_HandSolder" V 8780 1550 50  0001 C CNN
F 3 "~" H 8850 1550 50  0001 C CNN
	1    8850 1550
	1    0    0    -1  
$EndComp
$Comp
L Device:R R?
U 1 1 5F8C9F6F
P 9150 1550
AR Path="/60BBDBFB/5F8C9F6F" Ref="R?"  Part="1" 
AR Path="/60BBDBFB/5FD44D44/5F8C9F6F" Ref="R?"  Part="1" 
AR Path="/60BBDBFB/5FE02493/5F8C9F6F" Ref="R?"  Part="1" 
AR Path="/60BBDBFB/5FE91FD8/5F8C9F6F" Ref="R?"  Part="1" 
AR Path="/5F8C9F6F" Ref="R13"  Part="1" 
F 0 "R13" H 9220 1596 50  0000 L CNN
F 1 "4k7" H 9220 1505 50  0000 L CNN
F 2 "Resistor_SMD:R_0603_1608Metric_Pad0.98x0.95mm_HandSolder" V 9080 1550 50  0001 C CNN
F 3 "~" H 9150 1550 50  0001 C CNN
	1    9150 1550
	1    0    0    -1  
$EndComp
Wire Wire Line
	8550 1350 8850 1350
Wire Wire Line
	9150 1350 9150 1400
Connection ~ 8550 1350
Wire Wire Line
	8850 1400 8850 1350
Connection ~ 8850 1350
Wire Wire Line
	8850 1350 9150 1350
Wire Wire Line
	8850 1700 8850 1800
Wire Wire Line
	9150 1700 9150 1800
Text Label 8850 1800 3    50   ~ 0
SDA
Text Label 9150 1800 3    50   ~ 0
SCL
Text Label 4200 4100 2    50   ~ 0
TX-
Text Label 4200 4000 2    50   ~ 0
RX-
Text Label 4900 4000 0    50   ~ 0
RX+
Text Label 4900 4100 0    50   ~ 0
TX+
$Comp
L Device:LED D?
U 1 1 5F90C171
P 2750 6200
AR Path="/60BBDBFB/5F90C171" Ref="D?"  Part="1" 
AR Path="/60BBDBFB/5FD44D44/5F90C171" Ref="D?"  Part="1" 
AR Path="/60BBDBFB/5FE02493/5F90C171" Ref="D?"  Part="1" 
AR Path="/60BBDBFB/5FE91FD8/5F90C171" Ref="D?"  Part="1" 
AR Path="/5F90C171" Ref="D3"  Part="1" 
F 0 "D3" V 2789 6082 50  0000 R CNN
F 1 "LED" V 2698 6082 50  0000 R CNN
F 2 "LED_SMD:LED_0603_1608Metric_Pad1.05x0.95mm_HandSolder" H 2750 6200 50  0001 C CNN
F 3 "~" H 2750 6200 50  0001 C CNN
	1    2750 6200
	0    -1   -1   0   
$EndComp
$Comp
L Device:R R?
U 1 1 5F90E2C6
P 2750 5800
AR Path="/60BBDBFB/5F90E2C6" Ref="R?"  Part="1" 
AR Path="/60BBDBFB/5FD44D44/5F90E2C6" Ref="R?"  Part="1" 
AR Path="/60BBDBFB/5FE02493/5F90E2C6" Ref="R?"  Part="1" 
AR Path="/60BBDBFB/5FE91FD8/5F90E2C6" Ref="R?"  Part="1" 
AR Path="/5F90E2C6" Ref="R5"  Part="1" 
F 0 "R5" H 2820 5846 50  0000 L CNN
F 1 "390" H 2820 5755 50  0000 L CNN
F 2 "Resistor_SMD:R_0603_1608Metric_Pad0.98x0.95mm_HandSolder" V 2680 5800 50  0001 C CNN
F 3 "~" H 2750 5800 50  0001 C CNN
	1    2750 5800
	1    0    0    -1  
$EndComp
Wire Wire Line
	2400 6400 2750 6400
Wire Wire Line
	2750 6400 2750 6350
Connection ~ 2400 6400
Wire Wire Line
	2750 6050 2750 5950
Wire Wire Line
	2750 5650 2750 5600
Text Label 2750 5600 1    50   ~ 0
LED3
Text Label 2800 4500 0    50   ~ 0
LED3
Wire Wire Line
	1450 4400 1500 4400
$Comp
L Connector_Generic:Conn_02x04_Odd_Even J4
U 1 1 5F9BBD3C
P 4500 4000
F 0 "J4" H 4550 4317 50  0000 C CNN
F 1 "Conn_02x04_Odd_Even" H 4550 4226 50  0000 C CNN
F 2 "Connector_PinHeader_2.54mm:PinHeader_2x04_P2.54mm_Vertical" H 4500 4000 50  0001 C CNN
F 3 "~" H 4500 4000 50  0001 C CNN
	1    4500 4000
	1    0    0    -1  
$EndComp
Wire Wire Line
	5300 4200 4800 4200
Wire Wire Line
	5300 4200 5300 4750
Wire Wire Line
	5250 4650 5250 4300
Wire Wire Line
	5250 4300 4200 4300
Wire Wire Line
	4200 4300 4200 4200
Wire Wire Line
	4200 4200 4300 4200
Wire Wire Line
	3800 3900 4300 3900
Wire Wire Line
	3800 3100 3800 3900
Wire Wire Line
	3850 3200 3850 3350
Wire Wire Line
	3850 3600 5100 3600
Wire Wire Line
	5100 3600 5100 3900
Wire Wire Line
	5100 3900 4800 3900
$Comp
L Mechanical:MountingHole H1
U 1 1 5F8F6CA3
P 4100 5750
F 0 "H1" H 4200 5796 50  0000 L CNN
F 1 "MountingHole" H 4200 5705 50  0000 L CNN
F 2 "MountingHole:MountingHole_3.2mm_M3" H 4100 5750 50  0001 C CNN
F 3 "~" H 4100 5750 50  0001 C CNN
	1    4100 5750
	1    0    0    -1  
$EndComp
$Comp
L Mechanical:MountingHole H2
U 1 1 5F8F90F4
P 4100 5950
F 0 "H2" H 4200 5996 50  0000 L CNN
F 1 "MountingHole" H 4200 5905 50  0000 L CNN
F 2 "MountingHole:MountingHole_3.2mm_M3" H 4100 5950 50  0001 C CNN
F 3 "~" H 4100 5950 50  0001 C CNN
	1    4100 5950
	1    0    0    -1  
$EndComp
$Comp
L Mechanical:MountingHole H3
U 1 1 5F8F9338
P 4100 6150
F 0 "H3" H 4200 6196 50  0000 L CNN
F 1 "MountingHole" H 4200 6105 50  0000 L CNN
F 2 "MountingHole:MountingHole_3.2mm_M3" H 4100 6150 50  0001 C CNN
F 3 "~" H 4100 6150 50  0001 C CNN
	1    4100 6150
	1    0    0    -1  
$EndComp
$Comp
L Mechanical:MountingHole H4
U 1 1 5F8F96B8
P 4100 6350
F 0 "H4" H 4200 6396 50  0000 L CNN
F 1 "MountingHole" H 4200 6305 50  0000 L CNN
F 2 "MountingHole:MountingHole_3.2mm_M3" H 4100 6350 50  0001 C CNN
F 3 "~" H 4100 6350 50  0001 C CNN
	1    4100 6350
	1    0    0    -1  
$EndComp
Text Label 5300 4500 0    50   ~ 0
M_TX+
Text Label 5250 4500 2    50   ~ 0
M_TX-
Text Label 3850 3550 0    50   ~ 0
M_RX+
Text Label 3800 3550 2    50   ~ 0
M_RX-
Wire Wire Line
	5450 1100 5450 1650
Wire Wire Line
	5450 950  5450 1100
Connection ~ 5450 1100
$Comp
L Connector_Generic:Conn_01x02 BOOT1
U 1 1 5FB4B904
P 850 4500
F 0 "BOOT1" H 768 4175 50  0000 C CNN
F 1 "Conn_01x02" H 768 4266 50  0000 C CNN
F 2 "Connector_PinHeader_2.54mm:PinHeader_1x02_P2.54mm_Vertical" H 850 4500 50  0001 C CNN
F 3 "~" H 850 4500 50  0001 C CNN
	1    850  4500
	-1   0    0    1   
$EndComp
$Comp
L Device:R R?
U 1 1 601F7B24
P 3500 3150
AR Path="/60BBDBFB/601F7B24" Ref="R?"  Part="1" 
AR Path="/60BBDBFB/5FD44D44/601F7B24" Ref="R?"  Part="1" 
AR Path="/60BBDBFB/5FE02493/601F7B24" Ref="R?"  Part="1" 
AR Path="/60BBDBFB/5FE91FD8/601F7B24" Ref="R?"  Part="1" 
AR Path="/601F7B24" Ref="R14"  Part="1" 
F 0 "R14" H 3570 3196 50  0000 L CNN
F 1 "100" H 3570 3105 50  0000 L CNN
F 2 "Resistor_SMD:R_0603_1608Metric_Pad0.98x0.95mm_HandSolder" V 3430 3150 50  0001 C CNN
F 3 "~" H 3500 3150 50  0001 C CNN
	1    3500 3150
	1    0    0    -1  
$EndComp
Wire Wire Line
	3500 3000 3800 3000
Wire Wire Line
	3800 3000 3800 3100
Connection ~ 3800 3100
Wire Wire Line
	3500 3300 3500 3350
Wire Wire Line
	3500 3350 3850 3350
Connection ~ 3850 3350
Wire Wire Line
	3850 3350 3850 3600
$EndSCHEMATC
